<?xml version="1.0" encoding="utf-8"?>
<!-- Generator: Adobe Illustrator 26.0.2, SVG Export Plug-In . SVG Version: 6.00 Build 0)  -->
<svg version="1.1" id="Layer_1" xmlns="http://www.w3.org/2000/svg" xmlns:xlink="http://www.w3.org/1999/xlink" x="0px" y="0px"
	 viewBox="0 0 78.5 104.8" style="enable-background:new 0 0 78.5 104.8;" xml:space="preserve">
<style type="text/css">
	.st0{clip-path:url(#SVGID_00000085242350386470205220000017016995373601810309_);fill:#95C11F;}
	
		.st1{clip-path:url(#SVGID_00000085242350386470205220000017016995373601810309_);fill:none;stroke:#FFFFFF;stroke-width:2;stroke-miterlimit:10;}
	.st2{clip-path:url(#SVGID_00000085242350386470205220000017016995373601810309_);fill:#FFFFFF;}
</style>
<g>
	<defs>
		<rect id="SVGID_1_" x="1.1" y="0.7" width="76" height="105.6"/>
	</defs>
	<clipPath id="SVGID_00000126315973989855273670000005391420896965785217_">
		<use xlink:href="#SVGID_1_"  style="overflow:visible;"/>
	</clipPath>
	<path style="clip-path:url(#SVGID_00000126315973989855273670000005391420896965785217_);fill:#95C11F;" d="M74.3,38.3
		c0,19.4-35.2,63.5-35.2,63.5S3.9,57.8,3.9,38.3c0.2-19.4,16.2-35,35.6-34.8C58.7,3.8,74.1,19.2,74.3,38.3"/>
	
		<path style="clip-path:url(#SVGID_00000126315973989855273670000005391420896965785217_);fill:none;stroke:#FFFFFF;stroke-width:2;stroke-miterlimit:10;" d="
		M74.3,38.3c0,19.4-35.2,63.5-35.2,63.5S3.9,57.8,3.9,38.3c0.2-19.4,16.2-35,35.6-34.8C58.7,3.8,74.1,19.2,74.3,38.3z"/>
	<path style="clip-path:url(#SVGID_00000126315973989855273670000005391420896965785217_);fill:#FFFFFF;" d="M39.1,44.3
		c6,0,10.8-4.8,10.8-10.8c0-6-4.8-10.8-10.8-10.8s-10.8,4.8-10.8,10.8C28.3,39.5,33.2,44.3,39.1,44.3"/>
</g>
</svg>
