<svg width="42" height="42" viewBox="0 0 42 42" fill="none" xmlns="http://www.w3.org/2000/svg">
<path d="M20.6 41.4002C32 41.4002 41.2 32.2002 41.2 20.8002C41.2 9.40019 32 0.200195 20.6 0.200195C9.2 0.200195 0 9.40019 0 20.8002C0 32.2002 9.2 41.4002 20.6 41.4002Z" fill="white"/>
<path d="M12.5 8.40039C14 8.40039 15.2 9.60039 15.2 11.1004C15.2 12.7004 13.9 13.9004 12.5 13.8004C11.1 13.8004 9.8 12.6004 9.8 11.1004C9.8 9.70039 11 8.40039 12.5 8.40039Z" fill="#76B82A"/>
<path d="M14.1 31.2H10.9C10.5 31.2 10.2 30.9 10.2 30.4V16.8C10.2 16.4 10.5 16 10.9 16H14.1C14.5 16 14.8 16.3 14.8 16.8V30.5C14.8 30.9 14.5 31.2 14.1 31.2Z" fill="#76B82A"/>
<path d="M32.3 20.8001C32.3 17.9001 30 15.6001 27.2 15.6001H26.4C24.9 15.6001 23.5 16.4001 22.7 17.6001C22.6 17.7001 22.5 17.9001 22.5 18.0001V16.3001C22.5 16.1001 22.4 16.0001 22.2 16.0001H18C17.8 16.0001 17.7 16.1001 17.7 16.3001V30.9001C17.7 31.1001 17.8 31.2001 18 31.2001H22C22.2 31.2001 22.3 31.1001 22.3 30.9001V22.5001C22.3 21.0001 23.4 19.8001 24.9 19.8001C25.6 19.8001 26.3 20.1001 26.8 20.6001C27.3 21.1001 27.6 21.7001 27.6 22.5001V31.0001C27.6 31.2001 27.7 31.3001 27.9 31.3001H31.9C32.1 31.3001 32.2 31.2001 32.2 31.0001V20.8001H32.3Z" fill="#76B82A"/>
</svg>
