<svg width="228" height="196" viewBox="0 0 228 196" fill="none" xmlns="http://www.w3.org/2000/svg">
<path d="M178.2 179.1V89.3M194.3 89.3V179.1M82.6002 156.5V147H98.3002M127.2 162.9V178.9M82.6002 180.4V170.9H98.3002M225.8 193.5H210.4M82.6002 132.5V123H145.1V132.5M17.6002 193.5H2.2002M65.5002 120.4H17.6002V193.4H127.2M49.5002 136V179.1M33.5002 179.2V136M82.6002 108.5V99H145.1V108.5M127.2 178.9C122 178.9 117.5 177.1 113.8 173.4C110.1 169.7 108.3 165.3 108.3 160.1C108.3 154.9 110.1 150.4 113.8 146.8C117.5 143.1 122 141.3 127.2 141.3C132.4 141.3 136.9 143.1 140.6 146.8C144.3 150.5 146.1 154.9 146.1 160.1C146.1 165.3 144.3 169.8 140.6 173.4C136.8 177 132.4 178.9 127.2 178.9ZM127.2 178.9V193.5H210.4V74.1H162.1M162.1 179.1V74.1V2.5L101.4 23.8M82.6002 60.7V51.2H145.1V60.7M82.6002 84.6V75.1H145.1V84.6M96.5002 25.5L101.5 23.8V2.5H82.7002V30.1L65.7002 36V120.4H65.6002V180.4M18.4002 65.6C27.4002 65.6 35.0002 68.8 41.4002 75.1C47.7002 81.4 50.9002 89.1 50.9002 98.1C50.9002 100.4 50.7002 102.7 50.3002 104.8C48.1002 105.2 45.9002 105.4 43.6002 105.4C34.7002 105.4 27.0002 102.2 20.7002 95.9C14.4002 89.6 11.2002 81.9 11.2002 72.9C11.2002 70.6 11.4002 68.4 11.8002 66.2C13.8002 65.8 16.1002 65.6 18.4002 65.6ZM216 19.9C213.9 19.5 211.6 19.3 209.3 19.3C200.3 19.3 192.7 22.5 186.3 28.8C180 35.1 176.8 42.8 176.8 51.8C176.8 54.1 177 56.3 177.4 58.5C179.6 58.9 181.8 59.1 184.1 59.1C193 59.1 200.7 55.9 207 49.6C213.3 43.3 216.5 35.6 216.5 26.6C216.7 24.2 216.5 22 216 19.9Z" stroke="#76B72D" stroke-width="4.055" stroke-miterlimit="3" stroke-linecap="round" stroke-linejoin="round"/>
</svg>
