<?xml version="1.0" encoding="utf-8"?>
<!-- Generator: Adobe Illustrator 24.0.1, SVG Export Plug-In . SVG Version: 6.00 Build 0)  -->
<svg version="1.1" id="Layer_1" xmlns="http://www.w3.org/2000/svg" xmlns:xlink="http://www.w3.org/1999/xlink" x="0px" y="0px"
	 viewBox="0 0 224 140" style="enable-background:new 0 0 224 140;" xml:space="preserve">
<style type="text/css">
	.st0{fill:#FFFFFF;}
	.st1{fill-rule:evenodd;clip-rule:evenodd;fill:#80A6D3;}
	.st2{fill:#102D69;}
	.st3{fill-rule:evenodd;clip-rule:evenodd;fill:#102D69;}
	.st4{fill:#3973AB;}
	.st5{fill-rule:evenodd;clip-rule:evenodd;fill:#3973AB;}
	.st6{fill:#EDAC00;}
	.st7{fill:#283480;}
</style>
<title>Asset 70</title>
<g id="Layer_2_1_">
	<g id="ARTWORK">
		
		<polygon class="st1" points="21,99.1 21,58.1 51.6,47.6 82.2,58.1 82.2,99.1 		"/>
		<path class="st2" d="M50.7,90.3c0,0-1.6-0.4-1.9-0.6s0.1-10.8,0.3-12.2c0.3-1.3,0.6-2.6,1-3.9c-0.8-0.6-1.6-1.4-2.2-2.2
			c-0.4-0.7-0.6-1.4-0.8-2.2c0-0.5,0.8-5.6,0.9-6.2c0.6-1.1,1.4-2.1,2.2-3l1.2-0.4c0.3-0.1,0.7,0.1,0.9-0.3s1.1-0.7,1.1-0.7
			s0.1,0.1,0.2-0.3s0.3-1.2,0-1.5c-0.4-0.2-0.7-0.7-0.8-1.2c0-0.6,0.2-0.4,0.1-1.2c-0.1-1,0.3-2,1-2.7c0.8-0.6,1.8-1,2.2-0.7
			s2.3,0.8,2.3,2.2c0.1,0.8,0,1.6-0.1,2.3c-0.2,0.5-0.5,1.1-0.5,1.1l-0.4,0.2c0,0-0.1,0.8-0.1,1s0,0.4,0.3,0.6s0.9,0.3,1.4,0.5
			s1.1,0.9,1.7,1.1c0.8,0.4,1.5,1,2,1.7c0.1,0.5,0.2,3.2,0.3,3.7s1.2,3.2,1.2,3.9c-0.2,1-0.6,1.8-1.3,2.6c-0.4,0.4-1.5,1.2-1.5,1.2
			s0.4,9.2,0.4,10.6s0.5,4.3,0.1,4.8c-0.3,0.4-0.7,0.6-1.1,0.8v6.5c0,0.4-0.2,2.6,0.2,2.6s0.7,0.4,0.4,1.1s-0.6,1-0.5,1.4
			c0.2,0.7,0.6,1.4,0.9,2c0,0,0.2,0.9-0.2,1s-1.7,0.6-2.3,0s-0.7-0.8-1-1c-0.3-0.2-0.5-0.5-0.5-0.8c0-0.3,0.7-0.8,0.2-1.2
			s-0.6-0.8-0.4-1.2s0.5-1.2,0.4-1.5c-0.5-1.2-0.8-2.5-0.9-3.8c0-1.4-0.2-4.7-0.2-4.7s-1.4,0.2-1.4-0.3s0.1-1.9,0.1-1.9l-1-0.1
			c0,0-0.6,5.7-0.6,6.4c-0.1,1.2-0.3,2.3-0.6,3.4c-0.1,0.6,0.7,1,0.3,1.6c-0.4,0.5-0.7,1.1-0.9,1.7c0,0.7,0,1.3-0.1,2
			c-0.1,0.8-0.9,1.3-1.6,1.2c-1.1,0.1-1.5,0.3-1.5-1s0.4-1.9,0.4-2.3s-0.9-1.5-0.5-1.7c0.5-0.4,0.8-0.9,0.8-1.5c0-0.4-0.1-4.5,0-5.4
			S50.7,90.2,50.7,90.3"/>
		
		<path class="st3" d="M33.4,88.4c0,0-1.5,0.3-1.5-0.2s-0.2-6-0.2-6c-0.4-0.4-0.6-0.8-0.8-1.3c-0.1-0.6-0.2-2.3-0.2-2.3h-0.3
			c0,0-0.3-7.6-0.2-8.2s0.4-2,0.7-3.2s1.3-3.3,1.5-4.1c0.6-1,1.3-2,2.1-2.9c0.2-0.3,0.5-0.6,0.8-0.8c0,0-0.1-0.9-0.1-1.3
			c-0.1-0.5-0.4-1-0.7-1.4c-0.2-0.4-0.4-0.4-0.5-0.7c-0.1-0.9-0.1-1.8,0-2.7c0.2-0.9,0.8-1.7,1.7-2.1c1-0.3,2.2-0.1,3,0.6
			c1,1,1.1,4,1,4.3s-0.3,0.4-0.5,0.8s-0.5,0.3-0.5,1s-0.1,0.4-0.1,0.4l0.7,0.5l0.8,0.9c0,0,2.5,1.6,3,2.6c0.6,1.2,1.1,2.6,1.3,3.9
			c0.2,1.2,1.2,5.4,1,5.8c-0.3,0.8-0.8,1.5-1.5,2.2c-0.4,0.4-0.8,0.8-1.2,1.3c0.5,2.4,0.9,4.9,1.2,7.4c0,1.2,0.9,5,0.7,5.3
			s-1,0.3-1,0.3s0.1,6.2-0.1,8.4s-0.4,5.2-0.4,5.2l-0.4,0.1c0,0,0.4,1.3,0.1,1.5s-1.2,1.3-2.3,1.5s-1.9-0.2-1.7-0.9
			c0.3-0.7,0.7-1.4,1.1-2c-0.3-0.8-0.4-1.7-0.2-2.5c0.2-1.1,0.4-2.2,0.5-3.4c0-1,0.4-4.1,0.1-5.2c-0.2-0.9-0.5-1.7-0.9-2.5h-1.3
			c0.2,2,0.2,4,0.2,6c-0.2,0.8-0.2,4.5-0.4,5.2c-0.1,0.8,0,1.6,0.2,2.3c-0.3,0.2-0.6,0.4-1,0.4c-0.6,0.1-1.2,0.1-1.2,0.1
			s0.2-0.3-0.2-0.3s-1.5,0.5-2.6,0.8c-0.9,0.2-1.8,0.2-2.7-0.1c-0.6-0.2-0.7-0.8-0.2-0.9s2-0.1,2.6-0.5c0.5-0.4,1-0.8,1.5-1.2
			c0,0-0.4-2.6-0.1-3.3s1-2.1,0.5-3.2c-0.5-1-0.8-2-1-3.1C33.8,90.1,33.6,89.3,33.4,88.4"/>
		
		<path class="st4" d="M23.3,118.4c-0.6,0.1-1.3,0-1.9-0.2c-0.7-0.4-2.4-0.7-2.5-1.1c-0.1-0.3-0.2-0.7-0.2-1c0-0.6-0.1-2.8-0.1-3.5
			s0.9-5,1-5.7s0.3-2.8,0.4-3.3c0.1-0.3,0-0.7-0.2-1c0,0-0.6,0-0.8-0.4s0.5-7.4,0.6-8.3s0.4-4,0.5-5c0-0.5,0.1-1,0.3-1.4L20,87.3
			c-0.3,0-0.5,0.1-0.8,0.2c-0.4,0.1-0.8-0.8-1-1.3c-0.5-1-0.6-2.2-0.3-3.3c0.5-2.6,1.3-5.2,2.1-7.7c0.9-1.1,1.3-1,2.3-1.7
			s0.1-0.5,0.1-0.9s1-0.1,1-3.9c0.3-1,0.8-1.9,1.5-2.6c0.6-0.4,1.3-0.6,2-0.6c0.6,0.1,1.2,0.4,1.7,0.9c0.4,0.9,0.6,1.9,0.7,2.9
			c0,0.4-0.5,3.3-0.5,3.7s0.2,1.9,0.2,1.9s1.6,2,2,2.4c0.6,1,1.2,2.1,1.7,3.2c0,0,0.1,4.3,0.1,4.8s0.1,2-0.3,2.4s-1.6,0.3-1.6,0.3
			l-0.4,0.6c0,0,0.8,4.7,1,7s0.4,5.6,0.4,5.6c-0.1,0.3-0.3,0.5-0.6,0.6c-0.3,0.1-0.5,0.2-0.7,0.4c0,0,0.2,3.2-0.1,3.9
			c-0.4,1.2-0.6,2.5-0.6,3.8c0,0.6-0.2,1.7,0.1,2s1.2,0.6,1.2,0.9s-0.2,0.9,0.1,1.3s1.3,1,1.5,1.3s0.5,0.4,0.4,0.9s-0.3,0.8-1.2,0.7
			c-0.8-0.2-1.5-0.5-2.3-0.8c-0.6-0.1-1.4,0-1.7-0.1s-0.3-0.6-0.3-0.6l-1.2-0.2c0,0,0.2-7.1,0.2-8s-0.3-4.5-0.3-4.5l-1.3,0.2h-0.8
			c-0.1,0.9-0.3,1.8-0.5,2.7c-0.3,0.5-0.4,1-0.4,1.6c0,0.7-0.1,2.4-0.1,4s-0.3,1.6,0.1,2.1c0.4,0.5,0.6,1.1,0.6,1.7
			c-0.1,0.4-0.4,0.6-0.3,1s0.4,0.6,0.6,0.9s0.4,0.5,0.4,0.8S24.1,118.4,23.3,118.4"/>
		<path class="st0" d="M22.5,118.7c-0.4,0-0.9-0.1-1.2-0.3c-0.4-0.2-0.8-0.3-1.1-0.4c-0.9-0.3-1.4-0.5-1.4-0.8c0-0.1,0-0.2-0.1-0.2
			c-0.1-0.3-0.1-0.6-0.1-0.9c0-0.3,0-1,0-1.7s0-1.5,0-1.8s0.4-2.5,0.8-4.6c0.1-0.6,0.2-1,0.2-1.2s0.1-0.9,0.2-1.5
			c0-0.6,0.1-1.2,0.2-1.8c0-0.2,0-0.5-0.1-0.7c-0.4,0-0.7-0.2-0.8-0.5c0-2.4,0.2-4.7,0.5-7.1c0.1-0.6,0.1-1.1,0.1-1.3
			c0.1-0.9,0.4-4,0.5-5c0-0.4,0.1-0.8,0.2-1.3L20,87.6c-0.2,0-0.5,0.1-0.7,0.2c-0.4,0.2-0.9-0.3-1.3-1.5L17.9,86
			c-0.4-1-0.5-2.1-0.2-3.2c0.5-2.7,1.3-5.3,2.2-7.8c0.4-0.6,1-1,1.6-1.3c0.2-0.1,0.5-0.2,0.8-0.4c0.1-0.1,0.2-0.1,0.3-0.2
			c-0.2-0.1-0.3-0.2-0.3-0.4c0-0.2,0.1-0.3,0.2-0.4c0.2-0.2,0.8-0.7,0.8-3.5c0.3-1.1,0.9-2,1.7-2.8c0.7-0.4,1.4-0.6,2.2-0.7
			c0.1,0,1.4,0.3,1.8,1c0.4,1,0.7,2,0.8,3c0,0.2-0.1,0.9-0.3,2c-0.1,0.7-0.2,1.5-0.2,1.7s0.2,1.3,0.2,1.8c0.3,0.3,1.6,2,2,2.4
			c0.6,1.1,1.2,2.1,1.7,3.3v0.1c0,0,0.1,4.3,0.1,4.8v0.3c0.1,0.8,0,1.6-0.4,2.3c-0.5,0.3-1.1,0.5-1.7,0.3l-0.3,0.4
			c0.1,0.7,0.8,4.8,1,6.9c0.2,2.3,0.4,5.6,0.4,5.6c-0.1,0.4-0.3,0.7-0.7,0.9c-0.2,0.1-0.4,0.2-0.6,0.3c0,0.8,0.2,3.3-0.2,3.9
			c-0.4,1.2-0.5,2.4-0.6,3.7c0,0.2,0,0.3,0,0.6s-0.1,1.1,0,1.2l0.4,0.2c0.5,0.2,0.9,0.5,1,0.9c0,0.2,0,0.4,0,0.5
			c-0.1,0.2-0.1,0.5,0,0.7c0.3,0.3,0.6,0.6,1,0.8c0.2,0.1,0.4,0.3,0.5,0.4l0.1,0.1c0.5,0.4,0.6,1.2,0.1,1.7c0,0-0.1,0.1-0.1,0.1
			c-0.3,0.2-0.7,0.3-1.1,0.2c-0.5-0.1-1-0.3-1.5-0.5c-0.3-0.1-0.5-0.2-0.8-0.3c-0.6-0.1-1.3,0-1.8-0.1c-0.3-0.1-0.4-0.3-0.5-0.6
			l-1.2-0.2v-0.2c0-0.1,0.2-7.1,0.2-8s-0.2-3.4-0.3-4.3l-1.2,0.1h-0.6c-0.1,0.9-0.3,1.7-0.6,2.5c-0.3,0.4-0.4,0.9-0.4,1.4
			c0,0.3,0,0.7,0,1.2c0,0.8,0,1.8,0,2.8c0,0.4,0,0.9-0.1,1.3c0,0.4,0,0.4,0.1,0.6c0.4,0.5,0.7,1.2,0.6,1.9c0,0.2-0.1,0.3-0.2,0.5
			c-0.1,0.1-0.1,0.3-0.1,0.4c0.1,0.2,0.2,0.3,0.3,0.4c0.1,0.1,0.2,0.2,0.3,0.4l0.1,0.2c0.2,0.2,0.3,0.5,0.3,0.8
			c-0.3,0.6-0.9,0.9-1.5,0.9h-0.8L22.5,118.7z M20.1,87l0.9,0.4l-0.1,0.2c-0.1,0.4-0.2,0.9-0.3,1.4c-0.1,1-0.4,4.1-0.5,5
			c0,0.2,0,0.7-0.1,1.3c-0.2,2-0.6,6.5-0.5,6.9c0,0.1,0.4,0.2,0.5,0.2h0.1l0.1,0.1c0.2,0.4,0.3,0.8,0.2,1.2c-0.1,0.2-0.1,1-0.2,1.7
			S20,106.6,20,107s-0.1,0.6-0.2,1.2c-0.3,1.5-0.8,4-0.8,4.5s0,1.1,0,1.8s0,1.4,0,1.7c0,0.2,0,0.5,0.1,0.7c0,0.1,0.1,0.2,0.1,0.3
			c0.4,0.2,0.7,0.3,1.1,0.4c0.4,0.1,0.8,0.3,1.2,0.5c0.4,0.2,0.9,0.3,1.4,0.2h0.4c0.6,0,1-0.3,1-0.5s0-0.2-0.2-0.4
			c-0.1-0.1-0.1-0.2-0.2-0.2l-0.3-0.3c-0.2-0.2-0.3-0.4-0.4-0.7c0-0.3,0-0.5,0.2-0.7c0.1-0.1,0.1-0.2,0.2-0.4c0-0.5-0.2-1.1-0.5-1.5
			c-0.2-0.3-0.3-0.6-0.2-1c0-0.4,0.1-0.8,0.1-1.2c0-1,0-2,0-2.8c0-0.5,0-0.9,0-1.2c0-0.6,0.2-1.2,0.5-1.7c0.2-0.8,0.4-1.7,0.5-2.6
			v-0.2h1l1.6-0.1v0.2c0,0.1,0.3,3.6,0.3,4.6s-0.2,6.6-0.2,7.8l1.3,0.2v0.2c0,0.1,0,0.2,0.1,0.3c0.3,0.1,1.1,0,1.7,0.1
			c0.3,0.1,0.6,0.2,0.9,0.3c0.4,0.2,0.9,0.4,1.4,0.5c0.3,0.1,0.5,0,0.8-0.1c0.1-0.1,0.2-0.3,0.2-0.4c0-0.3-0.1-0.4-0.3-0.7l-0.1-0.1
			c-0.2-0.1-0.3-0.3-0.5-0.4c-0.4-0.3-0.8-0.6-1.1-1c-0.1-0.3-0.2-0.7-0.1-1c0-0.1,0-0.3,0-0.4c0-0.2-0.5-0.4-0.7-0.5l-0.4-0.2
			c-0.4-0.3-0.3-1-0.3-1.7c0-0.2,0-0.3,0-0.5c0-1.3,0.2-2.7,0.6-3.9c0.2-1.2,0.2-2.5,0.1-3.7v-0.1l0.1-0.1c0.2-0.2,0.5-0.4,0.8-0.5
			c0.2-0.1,0.4-0.2,0.4-0.4l0,0c0,0-0.2-3.3-0.4-5.5s-1-6.9-1-7v-0.1l0.6-0.8h0.1c0.4,0.1,1.1,0.1,1.4-0.2s0.3-1.5,0.2-2
			c0-0.1,0-0.2,0-0.3c0-0.4,0-4.2-0.1-4.7c-0.5-1.1-1-2.1-1.6-3.1C30.7,77,29,75,29,75h0v-0.1c0-0.2-0.2-1.6-0.2-1.9
			c0-0.2,0.1-0.8,0.3-1.8c0.1-0.8,0.3-1.7,0.3-1.9c-0.1-0.9-0.3-1.9-0.7-2.8c-0.2-0.4-1.1-0.7-1.5-0.8c-0.6,0.1-1.3,0.3-1.8,0.6
			c-0.7,0.7-1.2,1.5-1.4,2.4c0,3-0.7,3.6-1,3.9l0,0h0.1c0.1,0.1,0.3,0.2,0.3,0.4s-0.1,0.4-0.6,0.7S22,74,21.7,74.1
			c-0.6,0.3-1.1,0.7-1.5,1.2c-0.9,2.5-1.6,5-2.1,7.6c-0.3,1-0.2,2,0.2,2.9l0.1,0.2c0.3,0.8,0.6,1.2,0.7,1.2
			C19.4,87.2,19.7,87.1,20.1,87L20.1,87z"/>
		<path class="st4" d="M42.8,76.6c-0.5-0.5-0.9-1.1-1.3-1.8c0-0.3,1.4-2.6,1.7-3.1c0.3-0.6,0.8-1.1,1.5-1.3c0.6-0.2,1.8-0.6,1.8-0.6
			s0.2-0.3,0.4-0.6c0.2-0.3,0.5-0.5,0.9-0.6c-0.1-0.4-0.3-0.8-0.5-1.2c-0.3-0.3-0.5-0.7-0.7-1.1c-0.1-0.3-0.2-0.6-0.2-0.9
			c0-0.2,0.1-0.3,0.2-0.4c-0.1-0.8,0-1.6,0.4-2.3c0.5-0.8,1.3-1.2,2.2-1.1c1.1,0.1,2,0.9,2.3,2c0.2,0.9,0.2,1.8,0,2.6
			c-0.3,0.4-0.5,0.8-0.7,1.2c-0.1,0.4-0.1,1-0.1,1c0,0.2,0,0.3,0.2,0.4c0.2,0.1,1,0.3,1.1,0.6c0.1,0.2,0.2,0.5,0.4,0.7
			c0,0,1.4-0.1,2,0.5c0.9,1.3,1.6,2.6,2.2,4c0,0.5-0.1,1-0.4,1.5c-0.2,0.2-0.4,0.4-0.6,0.6c0,0,0.2,1.7-0.1,2.1
			c-0.4,0.3-0.8,0.6-1.2,0.8c0,0,0.6,3.7,0.6,4.3s0.6,4.4,0.6,4.4L55,88.3c0,0-0.1,6.2,0,7s-0.1,5,0.1,6.3s0.4,6.4,0.4,7.2
			s-0.1,1.9-0.1,1.9l-0.6,0.2c0,0,0.8,0.8,0.8,1.2s0.4,1-0.9,1s-2.4-0.3-2.4-0.7c0-0.4-0.1-0.8-0.2-1.2c-0.3-0.3-0.5-0.6-0.5-1
			c-0.1-1.7-0.1-3.4,0-5.2c0.1-1.9,0-3.8-0.4-5.7c-0.3-1.6-0.4-3.3-0.5-4.9c0-0.9,0-2-0.1-2.5c-0.1-0.6-0.3-1.2-0.5-1.7
			c-0.3,0.4-0.4,0.8-0.4,1.3c-0.1,0.9-0.4,6.4-0.5,7.5s0.6,3.2,0.3,4c-0.3,1.1-0.5,2.2-0.5,3.4c0,1.4,0,2.9-0.1,4.3
			c-0.2,0.2-0.3,0.4-0.5,0.6c0,0,0,0.8-0.3,0.9s-0.9-0.1-1.1,0.1c-0.5,0.5-1.2,0.8-1.9,0.8c-1.1,0.1-1.6-0.1-1.4-0.9
			c0.1-0.5,0.5-0.9,1-1.2c-0.2-0.4-0.2-0.9-0.2-1.3c0.3-1.4,0.4-2.8,0.4-4.2c0-2.9,0-7.8-0.1-9.7s-0.3-7.6-0.3-7.6L43.6,88
			c0,0,0.8-4.7,0.8-5.4c0.1-0.9,0.2-1.7,0.4-2.6c-0.5,0-1.1-0.1-1.6-0.3C42.8,79.4,42.8,76.6,42.8,76.6"/>
		<path class="st0" d="M54.3,113.3c-0.8,0.1-1.5-0.1-2.2-0.6c-0.1-0.1-0.2-0.3-0.2-0.4c0-0.3-0.1-0.7-0.2-1
			c-0.3-0.3-0.5-0.7-0.6-1.1c0-0.1,0-0.3,0-0.6c-0.1-1.5-0.1-3,0-4.6c0.1-1.9,0-3.8-0.4-5.7c-0.3-1.7-0.4-3.3-0.5-5
			c0-1.2,0-2-0.1-2.5c-0.1-0.4-0.2-0.8-0.3-1.1c-0.1,0.2-0.1,0.4-0.1,0.7c-0.1,0.8-0.4,6.4-0.5,7.5c0,0.6,0.1,1.2,0.2,1.7
			c0.2,0.8,0.2,1.6,0.1,2.3c-0.3,1.1-0.5,2.2-0.5,3.3c0,0.3,0,0.9,0,1.5c0,2.2,0,2.7-0.2,2.9s-0.3,0.4-0.4,0.5c0,0.3-0.1,0.9-0.5,1
			c-0.2,0-0.4,0-0.6,0c-0.2,0-0.4,0-0.4,0c-0.5,0.6-1.3,0.9-2.1,0.9c-0.7,0-1.3,0-1.5-0.3c-0.2-0.3-0.2-0.6-0.1-0.9
			c0.1-0.5,0.5-1,1-1.2c-0.2-0.7-0.2-1.5,0-2.2c0.2-1,0.3-2.1,0.3-3.2v-0.7c0-2.9,0-7.2-0.1-9s-0.3-6.3-0.3-7.4l-0.7-0.1v-0.2
			c0.2-1.3,0.8-4.8,0.8-5.4c0.1-0.8,0.2-1.6,0.3-2.3c-0.5,0-1-0.1-1.4-0.3c-0.5-0.2-0.5-1.8-0.5-3.2c-0.6-0.5-1-1.2-1.3-1.9
			c0.2-0.7,0.6-1.4,1-2c0.3-0.5,0.6-1,0.7-1.2c0.4-0.7,0.9-1.2,1.6-1.5c0.5-0.2,1.4-0.5,1.7-0.6c0.1-0.1,0.2-0.3,0.3-0.5
			c0.2-0.3,0.5-0.5,0.8-0.6c-0.1-0.3-0.2-0.6-0.4-0.9c-0.3-0.3-0.6-0.8-0.7-1.2c0-0.1,0-0.1,0-0.1c-0.1-0.2-0.1-0.5-0.1-0.7
			c0-0.2,0.1-0.4,0.2-0.5c-0.1-0.8,0-1.6,0.5-2.3c0.5-0.8,1.5-1.3,2.4-1.2c1.2,0.2,2.2,1,2.5,2.2c0.3,0.9,0.3,1.9,0,2.8l-0.2,0.3
			c-0.2,0.3-0.4,0.5-0.5,0.8c-0.1,0.4-0.1,1-0.1,1s0,0.1,0,0.2l0.2,0.1c0.4,0.1,0.8,0.3,1,0.7c0.1,0.2,0.2,0.3,0.3,0.5
			c0.7-0.1,1.4,0.1,2,0.6c0.9,1.3,1.7,2.6,2.3,4.1c0.1,0.6-0.1,1.2-0.4,1.7c-0.1,0.2-0.3,0.4-0.5,0.6c0.1,0.6,0.2,1.8-0.2,2.1
			c-0.3,0.3-0.7,0.5-1.1,0.7c0.1,0.8,0.6,3.7,0.6,4.2s0.4,3.3,0.6,4.4v0.2l-0.4,0.1c0,2.2-0.1,6.2,0,6.8c0.1,0.4,0,1.6,0,2.9
			s0,2.7,0,3.3c0.1,1.2,0.4,6.4,0.4,7.2s-0.1,1.9-0.1,1.9v0.2L55,111c0.3,0.3,0.5,0.7,0.6,1.1c0,0.1,0,0.1,0,0.2
			c0.1,0.3,0,0.5-0.1,0.8c-0.3,0.2-0.6,0.4-1,0.4L54.3,113.3z M50,89.6l0.2,0.4c0.2,0.6,0.4,1.2,0.5,1.8c0.1,0.6,0.1,1.7,0.1,2.5
			c0.1,1.6,0.2,3.3,0.5,4.9c0.3,1.9,0.5,3.9,0.4,5.8c-0.1,1.5-0.1,3,0,4.5c0,0.3,0,0.5,0,0.6c0.1,0.3,0.2,0.6,0.5,0.8l0.1,0.1
			c0.1,0.4,0.2,0.8,0.3,1.2c0,0,0,0,0,0.1c0.6,0.4,1.4,0.5,2.1,0.4c0.5,0,0.7-0.1,0.7-0.2s0-0.2,0-0.4c0-0.1,0-0.2,0-0.3
			c-0.2-0.4-0.4-0.8-0.7-1.1l-0.3-0.3l0.8-0.2c0-0.3,0.1-1.1,0.1-1.7c0-0.8-0.2-6-0.4-7.2c-0.1-0.6,0-2,0-3.4s0-2.5,0-2.8
			c-0.1-0.8,0-6.8,0-7v-0.2l0.3-0.1c-0.1-0.8-0.6-3.7-0.6-4.2s-0.4-3.3-0.6-4.3v-0.2l0.2-0.1c0.4-0.2,0.8-0.4,1.2-0.7
			c0.2-0.6,0.2-1.3,0.1-1.9v-0.2l0.1-0.1c0.2-0.1,0.4-0.3,0.5-0.5c0.2-0.4,0.4-0.8,0.4-1.3c-0.6-1.4-1.3-2.7-2.2-3.9
			c-0.5-0.4-1.1-0.5-1.8-0.4h-0.1l-0.1-0.1c-0.2-0.2-0.3-0.5-0.4-0.8c0-0.2-0.5-0.3-0.7-0.4L50.8,69c-0.2-0.1-0.4-0.4-0.3-0.7
			c0,0,0-0.5,0.1-1c0.1-0.4,0.2-0.7,0.4-1l0.2-0.2c0.2-0.8,0.2-1.7,0-2.5c-0.3-1-1.1-1.7-2.1-1.8c-0.7-0.1-1.3,0.2-2,1
			c-0.4,0.6-0.5,1.4-0.4,2.1v0.2L46.6,65c-0.1,0.1-0.1,0.1-0.1,0.2c0,0.2,0,0.4,0.1,0.6c0,0.1,0.1,0.2,0.1,0.3
			c0.1,0.4,0.3,0.7,0.6,1c0.3,0.4,0.5,0.9,0.6,1.3v0.2l-0.2,0.1c-0.3,0.1-0.5,0.3-0.8,0.5c-0.2,0.3-0.4,0.6-0.4,0.6V70h-0.1
			c0,0-1.2,0.4-1.8,0.6c-0.6,0.3-1,0.7-1.3,1.2C43.3,72,43,72.5,42.7,73c-0.4,0.6-0.7,1.2-1,1.8c0.4,0.6,0.8,1.1,1.3,1.6l0.1,0.1
			v0.1c-0.1,1,0,1.9,0.2,2.9c0.5,0.2,1,0.2,1.5,0.3h0.3L45,80c-0.2,0.8-0.3,1.7-0.4,2.5c0,0.6-0.6,4.2-0.8,5.2l0.6,0.1V88
			c0,0.1,0.2,5.7,0.3,7.5s0.1,6.1,0.1,9v0.7c0,1.1-0.1,2.2-0.3,3.3c-0.1,0.3-0.1,0.7-0.1,1c0,0.4,0,0.8,0.1,1.2l0.1,0.2l-0.3,0.1
			c-0.4,0.2-0.8,0.5-0.9,1c-0.1,0.2-0.1,0.4,0,0.5c0.2,0.2,0.7,0.2,1.1,0.2c0.7,0,1.3-0.3,1.7-0.7c0.2-0.2,0.5-0.2,0.8-0.2
			c0.1,0,0.2,0,0.4,0c0.1-0.2,0.2-0.4,0.2-0.7V111l0.1-0.1c0,0,0.3-0.3,0.5-0.5c0.1-0.9,0.1-1.7,0.1-2.6c0-0.7,0-1.3,0-1.6
			c0.1-1.2,0.3-2.3,0.6-3.4c0.1-0.7,0.1-1.4,0-2.1c-0.1-0.6-0.2-1.2-0.2-1.8c0.1-1.1,0.4-6.7,0.5-7.5c0-0.5,0.2-1,0.5-1.4L50,89.6z"
			/>
		<path class="st5" d="M65.8,110.7c-0.1-0.6-0.1-1.1-0.1-1.7c0-0.3,0.1-0.7,0.2-1c0.2,0.8,0.3,1.7,0.4,2.5c0,0.1-0.1,0.3-0.1,0.4
			L65.8,110.7z M61.8,112.1c0,0-0.7,0.2-0.8-0.2s0.7-9.2,0.7-10c0.1-1.4,0.4-2.8,0.9-4.1c0.5-1.1,0.8-2.1,1.1-3.3
			c0-0.6,0.3-2.8-0.1-3.6c-0.5-1.1-0.8-2.3-0.8-3.6c0-1.2,0.8-2.7,0.9-3.4s0.2-1.8,0.2-1.8s-0.7-0.8-0.8-1.2S63,79,63,79l-0.4,0.1
			c0,0-0.1-2.7-0.1-3.6c0-0.6,0.2-1.2,0.4-1.7c0.1-0.4,0.2-0.7,0.3-1.1c0,0,0,0.2-0.5,0.4s-0.4,0.1-0.2-0.6c0.1-0.5,0.2-0.9,0.3-1.4
			c0,0-1.2,0.3-1.2-0.2s-0.6-2.4-0.2-3.9s0.5-3.1,1.7-3.6c1-0.4,2.2-0.5,3.3-0.2c0.9,0.8,1.6,1.9,2.1,3c0.1,0.6,0.4,2.3-0.1,2.7
			s-0.8,0.6-0.8,0.6l0.2,1.6c0.3,0.2,0.6,0.3,0.8,0.6c0.7,0.8,1.3,1.7,1.8,2.7c0.1,0.5,0.8,1.5,0.6,2.4c-0.1,0.7-0.2,1.3-0.1,2
			c0,0,2-1.4,2.6-1.8s1.7-0.9,1.7-0.9l1.4-1.9l1.8,1.8l-4.3,3.3c0,0,1.2,0.2,1,0.6s-0.7,0.1-0.7,0.4s-0.1,0.2-0.4,0.6s0,0.6-0.4,0.9
			c-0.3,0.3-0.7,0.5-1.2,0.5c-0.7,0.1-1.4,0.1-1.4,0.1s0.1,6.6,0.1,7.4s-0.1,0.8-0.1,0.8l-0.5,0.1c0,0-0.1,2.6-0.2,4.1
			s0.4,3.7-0.2,4.1s-0.6,2-0.2,5.5s1.5,4.8,1.5,5.6c0,0.8,0.1,1.6,0.5,2.3c0.3,0.2-0.1,0.6-0.1,0.6s1.2,0.6,1.8,0.8s1,0.5,1,1
			s-1.8,1-3.1,0.8s-1.2-0.4-1.9-0.4s-2.5-0.1-2.5-0.1l0.1-0.6l-0.7-0.1l-0.1-1.7c-0.6,0.1-1.1,0.3-1.7,0.6c-0.4,0.2-0.2,0.5-1.6,0.6
			s-1.4-0.6-1.4-0.9C61.7,112.4,61.8,112.2,61.8,112.1"/>
		<path class="st0" d="M72.1,115.4c-0.2,0-0.4,0-0.6,0c-0.4-0.1-0.8-0.2-1.2-0.3c-0.2-0.1-0.4-0.1-0.6-0.1c-0.7,0-2.4-0.1-2.5-0.1
			h-0.3l0.1-0.6h-0.7l-0.1-1.6c-0.4,0.1-0.9,0.3-1.3,0.4c-0.1,0-0.1,0.1-0.2,0.2c-0.3,0.2-0.5,0.4-1.5,0.5c-0.5,0.1-1,0-1.3-0.3
			c-0.2-0.2-0.4-0.5-0.3-0.9c0,0,0-0.1,0-0.1c-0.3,0-0.6-0.1-0.7-0.4c0-2.1,0.2-4.1,0.4-6.2c0.2-1.8,0.3-3.5,0.3-3.9
			c0.1-1.4,0.4-2.8,0.9-4.2c0.1-0.3,0.3-0.7,0.4-1.1c0.3-0.6,0.5-1.3,0.7-2c0-0.1,0-0.4,0-0.7c0.2-1,0.2-2-0.1-3
			c-0.5-1.2-0.8-2.4-0.8-3.7c0.1-0.8,0.3-1.6,0.6-2.4c0.1-0.3,0.2-0.7,0.3-1c0-0.5,0.1-1.4,0.2-1.7c-0.4-0.3-0.6-0.8-0.8-1.2
			c0-0.3-0.1-1.3-0.1-1.8l-0.4,0.1v-0.3c0,0-0.1-2.7-0.1-3.6c0-0.4,0.1-0.9,0.3-1.3c0.1-0.2,0.1-0.3,0.2-0.5c0-0.2,0.1-0.3,0.1-0.4
			c-0.3,0.1-0.5,0.1-0.6,0s-0.1-0.3,0-0.7l0.1-0.2c0.1-0.3,0.2-0.7,0.2-1c-0.3,0.1-0.6,0-0.9-0.1c-0.1-0.1-0.2-0.3-0.2-0.4
			c0-0.2,0-0.4-0.1-0.7c-0.3-1.1-0.3-2.2-0.1-3.3c0.1-0.3,0.2-0.6,0.2-0.9c0.3-1.2,0.6-2.4,1.6-2.8c1.1-0.4,2.3-0.5,3.5-0.2
			c1,0.9,1.8,2,2.2,3.2c0,0.1,0,0.2,0,0.3c0.1,1.1,0.2,2.2-0.2,2.6c-0.3,0.3-0.5,0.4-0.7,0.5l0.2,1.3c0.3,0.2,0.5,0.3,0.7,0.5
			c0.8,0.8,1.4,1.8,1.9,2.8c0.1,0.2,0.1,0.4,0.2,0.6c0.3,0.6,0.5,1.2,0.4,1.9c-0.1,0.5-0.1,1-0.1,1.4c0.6-0.4,1.8-1.2,2.2-1.5
			s1.4-0.7,1.6-0.8l1.6-2.1l2.2,2.2L74.6,79c0.3,0.1,0.5,0.2,0.6,0.4c0.1,0.1,0.1,0.3,0,0.4c-0.1,0.2-0.3,0.4-0.6,0.4l0,0
			c0,0.2-0.1,0.4-0.2,0.5c0,0-0.1,0.1-0.2,0.2c-0.1,0.1-0.1,0.2-0.1,0.3c0,0.3-0.1,0.5-0.3,0.6l-0.2,0.1c-0.3,0.2-0.7,0.4-1.1,0.4
			c-0.4,0-0.9,0-1.2,0.1c0,1.2,0.1,6.5,0.1,7.1s0,0.9-0.1,1l-0.1,0.1h-0.4c0,0.6-0.1,2.6-0.2,3.8c0,0.6,0,1.2,0,1.8
			c0.1,1.2,0.1,2.2-0.4,2.5s-0.4,2.4-0.1,5.3c0.2,1.5,0.6,3,1.1,4.4c0.2,0.4,0.3,0.8,0.3,1.2c0,0.7,0.1,1.4,0.4,2.1
			c0.1,0.1,0.2,0.2,0.2,0.4c0,0.1,0,0.2-0.1,0.2c0.4,0.2,1.1,0.5,1.5,0.7s1.2,0.6,1.1,1.3c0,0.2-0.1,0.3-0.3,0.4
			C73.9,115.1,73,115.4,72.1,115.4z M67.4,114.4c0.5,0,1.7,0.1,2.2,0.1c0.3,0,0.5,0,0.8,0.2c0.4,0.1,0.8,0.2,1.2,0.3
			c1,0.2,2,0,2.8-0.6c0-0.2-0.1-0.5-0.8-0.8s-1.8-0.8-1.8-0.8l-0.3-0.2l0.2-0.2c0,0,0.1-0.1,0.1-0.2c-0.4-0.8-0.6-1.6-0.6-2.5
			c-0.1-0.3-0.2-0.7-0.3-1c-0.6-1.4-1-3-1.2-4.5c-0.5-3.9-0.4-5.3,0.3-5.8c0.3-0.2,0.2-1.3,0.2-2.1c0-0.6,0-1.2,0-1.8
			c0.1-1.5,0.2-4,0.2-4v-0.2l0.5-0.1c0-0.2,0-0.4,0-0.6c-0.1-0.7-0.1-7.1-0.1-7.4v-0.2h0.2c0,0,0.7,0,1.4-0.1c0.3,0,0.6-0.1,0.8-0.3
			l0.2-0.1c0.1-0.1,0.1-0.1,0.1-0.3c0-0.2,0.1-0.4,0.2-0.6l0.2-0.2h0.1l0,0c0,0,0-0.1,0-0.1c0-0.4,0.3-0.4,0.5-0.4
			c0.1,0,0.1,0,0.2-0.1c-0.2-0.1-0.5-0.2-0.8-0.2l-0.6-0.1l4.6-3.5l-1.4-1.4l-1.3,1.8c0,0-1,0.5-1.6,0.8s-2.5,1.8-2.6,1.8l-0.4,0.3
			v-0.4c0-0.7,0-1.3,0.1-2c0.1-0.6-0.1-1.2-0.4-1.8c-0.1-0.2-0.2-0.5-0.3-0.7c-0.4-0.9-1-1.8-1.7-2.5c-0.2-0.2-0.5-0.4-0.8-0.5
			l-0.1-0.1l-0.2-1.8l0.1-0.1c0.3-0.2,0.5-0.4,0.7-0.6c0.3-0.3,0.2-1.6,0.1-2.1c0-0.1,0-0.3,0-0.3c-0.5-1.1-1.1-2-2-2.8
			c-1-0.2-2.1-0.2-3.1,0.2c-0.8,0.3-1,1.3-1.3,2.5c-0.1,0.3-0.1,0.6-0.2,0.9c-0.2,1-0.2,2.1,0.1,3.1c0.1,0.2,0.1,0.5,0.1,0.8
			c0.1,0.1,0.5,0.1,0.9,0l0.3-0.1v0.3c-0.1,0.5-0.2,0.9-0.3,1.4l-0.1,0.2l0,0c0.1,0,0.2-0.1,0.3-0.1v-0.1l0.5,0.1c0,0.1,0,0.1,0,0.2
			c-0.1,0.2-0.2,0.6-0.3,1c0,0.2-0.1,0.4-0.2,0.6c-0.2,0.3-0.2,0.7-0.2,1.1c0,0.7,0,2.6,0.1,3.3l0.3-0.1V79c0,0,0,1.6,0.1,2
			c0.2,0.4,0.4,0.7,0.7,1l0.1,0.1v0.1c0,0-0.2,1.2-0.2,1.8c-0.1,0.4-0.2,0.8-0.3,1.2c-0.3,0.7-0.5,1.4-0.6,2.2
			c0,1.2,0.3,2.4,0.8,3.4c0.3,1,0.4,2.1,0.2,3.1c0,0.3,0,0.5,0,0.6c-0.1,0.8-0.4,1.5-0.7,2.2c-0.2,0.4-0.3,0.8-0.4,1.1
			c-0.4,1.3-0.7,2.6-0.8,4c0,0.4-0.2,2-0.3,3.9c-0.2,2.4-0.5,5.7-0.4,6c0,0.1,0.3,0.1,0.5,0l0.9-0.2l-0.7,0.7c0,0.1-0.1,0.2-0.1,0.3
			c0,0.2,0,0.4,0.2,0.5c0.3,0.2,0.7,0.3,1,0.2c1-0.1,1.1-0.2,1.3-0.4c0.1-0.1,0.1-0.1,0.2-0.2c0.6-0.3,1.1-0.5,1.7-0.6l0.3-0.1
			l0.1,1.7l0.8,0.1L67.4,114.4z M66.5,111.3l-0.9-0.4v-0.1c-0.1-0.6-0.1-1.2-0.1-1.8c0-0.4,0.1-0.7,0.2-1.1h0.5
			c0.2,0.9,0.4,1.7,0.4,2.6c0,0.3-0.1,0.4-0.1,0.4L66.5,111.3z M66.1,110.5L66.1,110.5v-0.1c0-0.3-0.1-0.7-0.2-1
			C65.9,109.8,66,110.2,66.1,110.5L66.1,110.5z"/>
		<polygon class="st6" points="67.4,36.6 69.2,40 73.3,40.6 70.4,43.2 71.1,47 67.4,45.2 63.7,47 64.4,43.2 61.4,40.6 65.5,40 		"/>
		<polygon class="st6" points="84.8,25 86.7,28.4 90.8,29 87.8,31.6 88.5,35.4 84.8,33.6 81.1,35.4 81.8,31.6 78.8,29 83,28.4 		"/>
		<polygon class="st6" points="104.4,18.7 106.3,22.1 110.4,22.6 107.4,25.3 108.1,29.1 104.4,27.3 100.7,29.1 101.4,25.3 
			98.4,22.6 102.6,22.1 		"/>
		<polygon class="st6" points="126.4,17.5 128.2,20.9 132.4,21.5 129.4,24.1 130.1,27.9 126.4,26.1 122.7,27.9 123.4,24.1 
			120.4,21.5 124.5,20.9 		"/>
		<polygon class="st6" points="147.1,20.6 149,24 153.1,24.5 150.1,27.2 150.8,30.9 147.1,29.2 143.4,30.9 144.1,27.2 141.1,24.5 
			145.3,24 		"/>
		<polygon class="st6" points="166.2,29.8 168,33.2 172.1,33.8 169.1,36.4 169.9,40.2 166.2,38.4 162.5,40.2 163.2,36.4 160.2,33.8 
			164.3,33.2 		"/>
		<polygon class="st6" points="180.8,41.8 182.6,45.2 186.8,45.7 183.8,48.4 184.5,52.2 180.8,50.4 177.1,52.2 177.8,48.4 
			174.8,45.7 178.9,45.2 		"/>
		<polygon class="st6" points="191.6,56.3 193.5,59.8 197.6,60.3 194.6,63 195.3,66.7 191.6,64.9 187.9,66.7 188.6,63 185.7,60.3 
			189.8,59.8 		"/>
		<polygon class="st6" points="198.6,74.4 200.4,77.8 204.5,78.4 201.5,81 202.2,84.8 198.6,83 194.9,84.8 195.6,81 192.6,78.4 
			196.7,77.8 		"/>
		<polygon class="st6" points="200.5,93.8 202.3,97.2 206.4,97.8 203.5,100.4 204.2,104.2 200.5,102.4 196.8,104.2 197.5,100.4 
			194.5,97.8 198.6,97.2 		"/>
		<polygon class="st6" points="196.6,112.1 198.4,115.5 202.5,116.1 199.5,118.7 200.2,122.5 196.6,120.7 192.9,122.5 193.6,118.7 
			190.6,116.1 194.7,115.5 		"/>
		<polygon class="st7" points="91.6,96.6 91.1,93.4 102.7,93.4 102.7,96.4 95.5,96.4 95.5,101.8 101.9,101.8 101.1,104.8 
			95.5,104.8 95.5,110.6 103.1,110.6 102.3,113.6 91.6,113.6 		"/>
		<path class="st7" d="M120,96.6l-0.4-3.1h3.9v12.1c0,5.1-3.4,8.5-8.7,8.5c-7.7,0-7.9-7.2-7.9-7.7v-9.8l-0.4-3.1h4.3v12.6
			c0,3,1.9,5,4.5,5s4.7-2.2,4.7-5.2L120,96.6z"/>
		<path class="st7" d="M134.4,93.4c3.6,0,7.1,2,7.1,6.3c0,3.6-3.4,6.8-8.2,6.8h-0.9v4.5l0.3,2.6h-4.3v-17l-0.4-3.1H134.4z
			 M133.9,103.4c2,0,3.6-1.7,3.6-3.7c0-2.3-1.7-3.3-3.6-3.3h-1.4v7.1H133.9z"/>
		<path class="st7" d="M148.6,93.7l2.6-0.6l6.1,16.8l1.7,3.8h-4.4l-1.7-4.7h-6.7l-1.8,4.7h-3.6L148.6,93.7z M147.2,105.8h4.8
			l-2.1-5.8l-0.3-1.2l-0.3,1.2L147.2,105.8z"/>
		<polygon class="st7" points="157.7,93.4 174.5,93.4 174.5,96.5 168,96.5 168,111 168.3,113.6 164.1,113.6 164.1,96.5 157.7,96.5 
					"/>
		<polygon class="st7" points="181.4,111 181.7,113.6 177.4,113.6 177.4,96.6 177,93.4 181.4,93.4 		"/>
	</g>
</g>
</svg>
