<?xml version="1.0" encoding="utf-8"?>
<!-- Generator: Adobe Illustrator 27.6.1, SVG Export Plug-In . SVG Version: 6.00 Build 0)  -->
<svg version="1.1" id="_ÎÓÈ_1" xmlns="http://www.w3.org/2000/svg" xmlns:xlink="http://www.w3.org/1999/xlink" x="0px" y="0px"
	 viewBox="0 0 287.7 362.2" style="enable-background:new 0 0 287.7 362.2;" xml:space="preserve">
<style type="text/css">
	.st0{fill:#FFFFFF;}
</style>
<path class="st0" d="M261.7,225.6c-0.5,15.2-3.9,30.1-10,43.9l16.9,16.2c-1.9,5-10.4,17.6-15.2,23.6s-15.3,17-19.8,20l-19.2-12.8
	c-6.1,4.6-12.7,8.6-19.9,12c-6.8,3.2-13.7,5.7-20.6,7.6l-2.2,23.3c-5.1,1.6-20.2,2.8-28,2.8s-22.8-1.3-27.9-3l-2-23
	c-1.7-0.4-3.4-1.1-5.1-1.6v0.1c-0.5-0.2-1.1-0.4-1.6-0.6c-1.9-0.6-3.9-1.3-5.8-2c-2.8-1.1-5.7-2.2-8.5-3.6c-0.1,0-0.2-0.1-0.3-0.1
	c-0.2-0.1-0.4-0.2-0.6-0.2c-2.7-1.3-5.4-2.8-7.9-4.3c-0.5-0.3-1-0.5-1.5-0.8c-3.2-2-6.4-4-9.3-6.3l-19.5,12.8c0,0-0.2-0.1-0.2-0.2
	c-4.6-3.2-14.7-14-19.4-20c-1-1.2-2.1-2.8-3.3-4.4l0,0c0,0,0-0.1-0.1-0.1c-3.8-5.4-8.3-12.3-10.6-16.8c-0.7-1.1-1.2-2.1-1.4-2.6
	l16.8-15.8c-5.8-13.4-9-27.6-9.7-42.1c0-0.6-0.1-1.2-0.1-1.8l-22.2-7.2v-1.3c-0.1-3,0.4-7.7,1.1-12.6c0.1-1,0.3-2.1,0.5-3.2
	c0-0.1,0-0.2,0.1-0.4c0.1-0.6,0.2-1.1,0.3-1.7c0.6-3.3,1.2-6.5,1.7-8.8c0.9-4,2.7-9.9,4.6-15.2l80.7,26.5
	c-2.5,6.3-3.9,13.2-3.9,20.4c0,30.5,24.7,55.1,55.2,55.1s55.1-24.7,55.1-55.2c0-7.1-1.4-13.9-3.9-20.2l80.3-27.5
	c6.8,20.4,8.6,42,8.4,44.1L261.7,225.6z M287.4,125.9c-0.3-1.5-1.6-2.6-3.1-2.6h-11.1l-0.4-3.8l-0.8-7.8
	c-2.5-23.3-15.6-46.3-40.1-70.2l-7.1,26.7c-0.7,2.8-3.3,4.7-6.2,4.7c-0.3,0-0.5,0-0.8-0.1c-3.2-0.4-5.6-3.1-5.6-6.3V30.9
	c-8.2-5.2-19.4-11.1-25-12.7l-8.1,95.9c-0.4,3.2-3.1,5.6-6.3,5.6h-0.4c-3.4-0.2-6-3.1-5.9-6.5L169.1,1c-2.6-0.3-20.3-1-30.8-1
	s-16.9,0.7-19.6,1l2.6,112.2c0.1,3.4-2.6,6.3-5.9,6.5h-0.5c-3.2,0-6-2.4-6.4-5.8l-8.1-95.7c-6.3,1.8-16.8,7.4-25,12.7v35.6
	c0,3.2-2.4,5.9-5.6,6.3c-0.3,0-0.6,0.1-0.8,0.1c-2.9,0-5.4-1.9-6.2-4.7l-7.1-26.6c-24.5,23.9-37.6,46.9-40.1,70.2l-0.8,7.8l-0.4,3.8
	h-3.8l-7.2-0.1c-1.5,0-2.8,1-3.1,2.5c-0.5,2.6-0.6,6.9,1,11.9c1.5,4.7,5.5,12.5,14.7,12.5h2.3c3.6,0,7.1,1,10.2,2.9
	c1.9,1.2,10,6.8,11.9,8.2c11.5,8.9,23.4,18.2,103.5,18.2s92.1-9.2,103.6-18.2c1.9-1.5,9.9-7,11.9-8.2c3.1-1.9,6.6-2.9,10.1-2.9h2.3
	c9.2,0,13.2-7.8,14.7-12.5C287.9,132.8,287.9,128.5,287.4,125.9z"/>
</svg>
