<?xml version="1.0" encoding="utf-8"?>
<!-- Generator: Adobe Illustrator 27.6.1, SVG Export Plug-In . SVG Version: 6.00 Build 0)  -->
<svg version="1.1" id="_x2014_ÎÓÈ_x5F_1" xmlns="http://www.w3.org/2000/svg" xmlns:xlink="http://www.w3.org/1999/xlink"
	 x="0px" y="0px" viewBox="0 0 444.2 461.5" style="enable-background:new 0 0 444.2 461.5;" xml:space="preserve">
<style type="text/css">
	.st0{fill:url(#SVGID_1_);stroke:#FFFFFF;stroke-width:2.8346;stroke-miterlimit:10;}
</style>
<linearGradient id="SVGID_1_" gradientUnits="userSpaceOnUse" x1="229.8382" y1="960.1563" x2="229.8382" y2="1263.606" gradientTransform="matrix(1 0 0 1 0 -886)">
	<stop  offset="0" style="stop-color:#91AAA0"/>
	<stop  offset="1" style="stop-color:#07212A"/>
</linearGradient>
<path class="st0" d="M175.8,210.8L150,185c-16.5,6.4-34.6,3.5-52.1-14c-26.1-26.1-12.7-49.5-12.7-49.5l25.4,25.4l24.8,6.3l25.4-25.4
	l-5.8-25.3l-25.4-25.4c0,0,22.4-12.4,48.5,13.7c17.5,17.5,20.6,35.4,14.3,51.8l33.8,33.8l6.9,6.9l-11.3,11.3l-3.2-3.2
	c-5.2-5.2-13.8-5.2-19,0L185,206.1c-2.7,2.7-4,6.4-3.9,10L175.8,210.8z M314.4,329.6l22.5-22.5l22.4,6l22.5,22.5
	c0,0,11.9-20.8-11.3-43.9c-14.3-14.3-29.1-17.6-42.8-13.6l-57.4-57.4l-5-5L254,227l3.2,3.2c5.2,5.2,5.2,13.8,0,19l-14.6,14.6
	c-2.5,2.5-5.9,3.9-9.5,3.9c-0.2,0-0.3,0-0.4,0l10.6,10.6l42.1,42.1c-3.8,13.5-0.4,28.1,13.9,42.4c23.2,23.2,43.1,12.2,43.1,12.2
	l-22.5-22.5L314.4,329.6z M334.4,87.8l-34.1,25.4l-4.1,19.3l-12.1,12.4l-62.4,62.4l-9.5-9.5c-1.8-1.8-4.6-1.8-6.4,0l-14.6,14.6
	c-1.8,1.8-1.8,4.6,0,6.4l4.3,4.3c-12.8,19.4-23.9,18-23.9,18l0.1,0.1c-8.1-1.2-16.7,1.3-23,7.5l-66,66c-10.5,10.5-10.5,27.6,0,38.1
	L95.9,366c10.5,10.5,27.6,10.5,38.1,0l66-66c6.3-6.3,8.7-14.9,7.5-23l0.1,0.1c0,0-2.2-9.5,18.1-23.9l4.2,4.2c1.8,1.8,4.6,1.8,6.4,0
	l14.6-14.6c1.8-1.8,1.8-4.6,0-6.4l-9.5-9.5l62.7-62.7l12.1-11.7l19.3-4.1l25.4-34.1L334.4,87.8z"/>
</svg>
