<?xml version="1.0" encoding="utf-8"?>
<!-- Generator: Adobe Illustrator 27.6.1, SVG Export Plug-In . SVG Version: 6.00 Build 0)  -->
<svg version="1.1" id="_x2014_ÎÓÈ_x5F_1" xmlns="http://www.w3.org/2000/svg" xmlns:xlink="http://www.w3.org/1999/xlink"
	 x="0px" y="0px" viewBox="0 0 444.2 461.5" style="enable-background:new 0 0 444.2 461.5;" xml:space="preserve">
<style type="text/css">
	.st0{fill:#FFFFFF;}
</style>
<g>
	<path class="st0" d="M386.4,227.3L235,75.9c-3.7-3.7-9.7-3.7-13.4,0L70.3,227.3c-3.7,3.7-3.7,9.7,0,13.4l1,1h27.8V368
		c0,5.5,4.5,10.1,10.1,10.1H194V268.5c0-3.7,3-6.7,6.7-6.7h52.5c3.7,0,6.7,3,6.7,6.7V378h87.7c5.5,0,10.1-4.5,10.1-10.1V241.7h27.8
		l1-1C390.1,237,390.1,231,386.4,227.3z M227.1,233.5c-4.7,0-8.6-3.8-8.6-8.6c0-4.7,3.8-8.6,8.6-8.6c4.7,0,8.6,3.8,8.6,8.6
		C235.7,229.7,231.9,233.5,227.1,233.5z M255.4,211.6c-1.3,1.3-3.4,1.3-4.8,0c-13-13-34.2-13-47.2,0c-1.3,1.3-3.4,1.3-4.8,0
		c-1.3-1.3-1.3-3.4,0-4.8c15.6-15.6,41.1-15.6,56.8,0C256.7,208.2,256.7,210.3,255.4,211.6z M269,198c-1.3,1.3-3.4,1.3-4.8,0
		c-20.5-20.5-53.9-20.5-74.5,0c-1.3,1.3-3.4,1.3-4.8,0c-1.3-1.3-1.3-3.4,0-4.8c23.2-23.2,60.8-23.2,84,0
		C270.3,194.5,270.3,196.7,269,198z M282.6,184.4c-1.3,1.3-3.4,1.3-4.8,0c-28-28-73.7-28-101.7,0c-1.3,1.3-3.4,1.3-4.8,0
		c-1.3-1.3-1.3-3.4,0-4.8c30.7-30.7,80.6-30.7,111.2,0C283.9,180.9,283.9,183.1,282.6,184.4z"/>
	<path class="st0" d="M357.6,94.8c0-3.7-3-6.7-6.7-6.7h-46.2c-3.7,0-6.7,3-6.7,6.7v29.9l59.6,59.6L357.6,94.8L357.6,94.8z"/>
</g>
</svg>
