<?xml version="1.0" encoding="utf-8"?>
<!-- Generator: Adobe Illustrator 24.0.1, SVG Export Plug-In . SVG Version: 6.00 Build 0)  -->
<svg version="1.1" id="Layer_1" xmlns="http://www.w3.org/2000/svg" xmlns:xlink="http://www.w3.org/1999/xlink" x="0px" y="0px"
	 viewBox="0 0 20 20" style="enable-background:new 0 0 20 20;" xml:space="preserve">
<style type="text/css">
	.st0{fill:#005D8B;}
	.st1{fill:none;stroke:#005D8B;stroke-width:2;stroke-miterlimit:10;}
</style>
<title>Asset 79</title>
<g id="Layer_2_1_">
	<g id="ARTWORK">
		<polygon class="st0" points="8.9,4.7 8.9,10.9 6.3,8.4 4.7,10 10,15.3 15.3,10 13.7,8.4 11.1,10.9 11.1,4.7 		"/>
		<circle class="st1" cx="10" cy="10" r="9"/>
	</g>
</g>
</svg>
