<?xml version="1.0" encoding="utf-8"?>
<!-- Generator: Adobe Illustrator 26.1.0, SVG Export Plug-In . SVG Version: 6.00 Build 0)  -->
<svg version="1.1" id="a" xmlns="http://www.w3.org/2000/svg" xmlns:xlink="http://www.w3.org/1999/xlink" x="0px" y="0px"
	 viewBox="0 0 71.2 70.7" style="enable-background:new 0 0 71.2 70.7;" xml:space="preserve">
<style type="text/css">
	
		.st0{clip-path:url(#SVGID_00000162331126141712416360000002587605512333922458_);fill:url(#SVGID_00000003807725664745763430000013240391038592911274_);}
	
		.st1{clip-path:url(#SVGID_00000105385857844545901100000002742980947272352689_);fill:none;stroke:#FFFFFF;stroke-width:1.8;stroke-linecap:round;stroke-linejoin:round;stroke-miterlimit:10;}
</style>
<g>
	<defs>
		<path id="SVGID_1_" d="M34.2,6.5C18.5,6.5,5.7,19.3,5.7,35c0,15.7,12.8,28.5,28.5,28.5c15.7,0,28.5-12.8,28.5-28.5
			C62.7,19.3,49.9,6.5,34.2,6.5z"/>
	</defs>
	<clipPath id="SVGID_00000010301593473451718310000016680823944231681192_">
		<use xlink:href="#SVGID_1_"  style="overflow:visible;"/>
	</clipPath>
	
		<linearGradient id="SVGID_00000019674461287346255810000018054337773409357970_" gradientUnits="userSpaceOnUse" x1="-122.174" y1="163.9502" x2="-121.174" y2="163.9502" gradientTransform="matrix(56.9771 0 0 -56.9771 6966.8452 9376.4287)">
		<stop  offset="0" style="stop-color:#E27900"/>
		<stop  offset="0.1484" style="stop-color:#E27900"/>
		<stop  offset="0.9836" style="stop-color:#D45815"/>
		<stop  offset="1" style="stop-color:#D45815"/>
	</linearGradient>
	
		<rect x="5.7" y="6.5" style="clip-path:url(#SVGID_00000010301593473451718310000016680823944231681192_);fill:url(#SVGID_00000019674461287346255810000018054337773409357970_);" width="57" height="57"/>
</g>
<g>
	<defs>
		<rect id="SVGID_00000017480224291709399010000017642548594329469840_" x="5.7" y="6.5" width="57" height="57"/>
	</defs>
	<clipPath id="SVGID_00000020383829353898576220000002105844845712761229_">
		<use xlink:href="#SVGID_00000017480224291709399010000017642548594329469840_"  style="overflow:visible;"/>
	</clipPath>
	
		<path style="clip-path:url(#SVGID_00000020383829353898576220000002105844845712761229_);fill:none;stroke:#FFFFFF;stroke-width:1.8;stroke-linecap:round;stroke-linejoin:round;stroke-miterlimit:10;" d="
		M49.3,44.2c0,0.9-0.7,1.6-1.6,1.6H19.9c-0.9,0-1.6-0.7-1.6-1.6V25.8c0-0.9,0.7-1.6,1.6-1.6h27.8c0.9,0,1.6,0.7,1.6,1.6V44.2z"/>
	
		<path style="clip-path:url(#SVGID_00000020383829353898576220000002105844845712761229_);fill:none;stroke:#FFFFFF;stroke-width:1.8;stroke-linecap:round;stroke-linejoin:round;stroke-miterlimit:10;" d="
		M19.5,44.7c-0.6,0.6-0.4,1.1,0.4,1.1h27.8c0.9,0,1.1-0.5,0.4-1.1L38.1,35L35,37.9c-0.6,0.6-1.6,0.6-2.3,0L29.6,35L19.5,44.7z"/>
	
		<path style="clip-path:url(#SVGID_00000020383829353898576220000002105844845712761229_);fill:none;stroke:#FFFFFF;stroke-width:1.8;stroke-linecap:round;stroke-linejoin:round;stroke-miterlimit:10;" d="
		M47.8,24.2c0.9,0,1.1,0.5,0.4,1.1L35,37.9c-0.6,0.6-1.6,0.6-2.3,0L19.5,25.3c-0.6-0.6-0.4-1.1,0.4-1.1H47.8z"/>
</g>
</svg>
