<svg width="24" height="24" viewBox="0 0 24 24" fill="none" xmlns="http://www.w3.org/2000/svg">
<path d="M15.3053 11.885L9.39983 17.9781L7.97811 16.6002L12.5056 11.9288L7.83425 7.4013L9.21219 5.97958L15.3053 11.885Z" fill="#F1ECE9"/>
</svg>
