<svg width="24" height="24" viewBox="0 0 24 24" fill="none" xmlns="http://www.w3.org/2000/svg">
<path d="M12 15.375L6 9.37498L7.4 7.97498L12 12.575L16.6 7.97498L18 9.37498L12 15.375Z" fill="#F1ECE9"/>
</svg>
