<svg width="31" height="31" viewBox="0 0 31 31" fill="none" xmlns="http://www.w3.org/2000/svg">
<path d="M15.98 6.91016C20.24 6.91016 23.69 10.3602 23.69 14.6202" stroke="#7aa836" stroke-width="1.6" stroke-linecap="round" stroke-linejoin="round"/>
<path d="M15.98 1.80029C23.06 1.80029 28.79 7.54029 28.79 14.6103" stroke="#7aa836" stroke-width="1.6" stroke-linecap="round" stroke-linejoin="round"/>
<path d="M2.92987 2.82007C-1.03013 6.78007 1.32987 15.5501 8.18987 22.4101C15.0499 29.2701 23.8199 31.6301 27.7699 27.6701C28.9699 26.4701 29.5099 23.7501 29.5099 23.7501C29.5999 23.3001 29.3399 22.8001 28.9299 22.6401L21.7499 19.7701C21.3399 19.6101 20.7399 19.7401 20.4099 20.0801L18.3299 22.1601C17.9299 22.5601 17.3599 22.6601 16.9099 22.4501C16.8699 22.4301 16.8399 22.4101 16.7999 22.4001C16.7799 22.4001 16.7699 22.3801 16.7499 22.3701C15.1699 21.5101 13.4999 20.2501 11.9199 18.6801C10.3499 17.1101 9.08987 15.4301 8.22987 13.8501C8.22987 13.8401 8.20987 13.8201 8.20987 13.8101C8.18987 13.7701 8.16987 13.7401 8.14987 13.7001C7.93987 13.2501 8.03987 12.6701 8.43987 12.2801L10.5199 10.2001C10.8499 9.87007 10.9899 9.26007 10.8199 8.85007L7.94987 1.67007C7.78987 1.26007 7.28987 1.00007 6.83987 1.09007C6.83987 1.09007 4.11987 1.63007 2.91987 2.83007L2.92987 2.82007Z" stroke="#7aa836" stroke-width="1.6" stroke-miterlimit="10"/>
</svg>
