<?xml version="1.0" encoding="utf-8"?>
<!-- Generator: Adobe Illustrator 26.1.0, SVG Export Plug-In . SVG Version: 6.00 Build 0)  -->
<svg version="1.1" id="Layer_1" xmlns="http://www.w3.org/2000/svg" xmlns:xlink="http://www.w3.org/1999/xlink" x="0px" y="0px"
	 viewBox="0 0 97.4 96.1" style="enable-background:new 0 0 97.4 96.1;" xml:space="preserve">
<style type="text/css">
	
		.st0{clip-path:url(#SVGID_00000140713430081783563880000006066788224586917811_);fill:none;stroke:#005371;stroke-width:3.827;stroke-miterlimit:10;}
</style>
<g>
	<defs>
		<rect id="SVGID_1_" x="21.3" y="9.2" width="56.5" height="78.5"/>
	</defs>
	<clipPath id="SVGID_00000093878405335100820190000001202623205152353687_">
		<use xlink:href="#SVGID_1_"  style="overflow:visible;"/>
	</clipPath>
	
		<path style="clip-path:url(#SVGID_00000093878405335100820190000001202623205152353687_);fill:none;stroke:#005371;stroke-width:3.827;stroke-miterlimit:10;" d="
		M57.6,33.6c0,4.5-3.6,8.1-8.1,8.1c-4.5,0-8.1-3.6-8.1-8.1c0-4.5,3.6-8.1,8.1-8.1C54,25.5,57.6,29.1,57.6,33.6z M75.8,37.2
		c-0.2-14.3-11.7-25.8-26-26c-14.5-0.2-26.5,11.5-26.6,26c0,14.6,26.3,47.5,26.3,47.5S75.8,51.7,75.8,37.2z"/>
</g>
</svg>
