<?xml version="1.0" encoding="utf-8"?>
<!-- Generator: Adobe Illustrator 26.1.0, SVG Export Plug-In . SVG Version: 6.00 Build 0)  -->
<svg version="1.1" id="Layer_1" xmlns="http://www.w3.org/2000/svg" xmlns:xlink="http://www.w3.org/1999/xlink" x="0px" y="0px"
	 viewBox="0 0 46.4 44.9" style="enable-background:new 0 0 46.4 44.9;" xml:space="preserve">
<style type="text/css">
	
		.st0{clip-path:url(#SVGID_00000028305041480637442920000001187103092558497159_);fill:none;stroke:#005371;stroke-width:1.4;stroke-miterlimit:10;}
</style>
<g>
	<defs>
		<polygon id="SVGID_1_" points="3.5,40.3 40.4,35.8 43.5,5.1 4.7,7.3 		"/>
	</defs>
	<clipPath id="SVGID_00000095323927413707570220000018427470864323032502_">
		<use xlink:href="#SVGID_1_"  style="overflow:visible;"/>
	</clipPath>
	
		<path style="clip-path:url(#SVGID_00000095323927413707570220000018427470864323032502_);fill:none;stroke:#005371;stroke-width:1.4;stroke-miterlimit:10;" d="
		M39.7,12.4c-1.2,0.5-2.4,0.9-3.7,1c1.3-0.8,2.4-2.1,2.9-3.6c-1.3,0.7-2.6,1.3-4.1,1.6c-1.2-1.3-2.9-2.1-4.7-2.1
		c-3.6,0-6.5,2.9-6.5,6.5c0,0.5,0.1,1,0.2,1.5c-5.4-0.3-10.2-2.9-13.4-6.8c-0.6,1-0.9,2.1-0.9,3.3c0,2.3,1.1,4.2,2.9,5.4
		c-1.1,0-2.1-0.3-2.9-0.8c0,0,0,0.1,0,0.1c0,3.1,2.2,5.8,5.2,6.4c-0.5,0.1-1.1,0.2-1.7,0.2c-0.4,0-0.8,0-1.2-0.1
		c0.8,2.6,3.2,4.5,6.1,4.5c-2.2,1.7-5,2.8-8.1,2.8c-0.5,0-1,0-1.5-0.1c2.9,1.8,6.3,2.9,10,2.9c12,0,18.5-9.9,18.5-18.5
		c0-0.3,0-0.6,0-0.8C37.7,14.9,38.8,13.7,39.7,12.4z"/>
</g>
</svg>
