<?xml version="1.0" encoding="utf-8"?>
<!-- Generator: Adobe Illustrator 26.1.0, SVG Export Plug-In . SVG Version: 6.00 Build 0)  -->
<svg version="1.1" id="Layer_1" xmlns="http://www.w3.org/2000/svg" xmlns:xlink="http://www.w3.org/1999/xlink" x="0px" y="0px"
	 viewBox="0 0 108.6 91.6" style="enable-background:new 0 0 108.6 91.6;" xml:space="preserve">
<style type="text/css">
	.st0{fill:#CB1C49;}
	
		.st1{clip-path:url(#SVGID_00000026141646550953458070000006099255308220047249_);fill:none;stroke:#CB1C49;stroke-width:2.5;stroke-miterlimit:10;}
	
		.st2{clip-path:url(#SVGID_00000026141646550953458070000006099255308220047249_);fill:none;stroke:#CB1C49;stroke-width:2.5;stroke-linejoin:round;stroke-miterlimit:10;}
</style>
<g>
	<path class="st0" d="M66.3,26.6l1.1,9.9h1.9l1.1-9.9V20h-4V26.6z M66.2,42.9h4.3v-4h-4.3V42.9z"/>
	<g>
		<defs>
			<rect id="SVGID_1_" x="12" y="2.5" width="85.4" height="85.4"/>
		</defs>
		<clipPath id="SVGID_00000083780287797370870010000002679218175972208553_">
			<use xlink:href="#SVGID_1_"  style="overflow:visible;"/>
		</clipPath>
		
			<path style="clip-path:url(#SVGID_00000083780287797370870010000002679218175972208553_);fill:none;stroke:#CB1C49;stroke-width:2.5;stroke-miterlimit:10;" d="
			M67.6,75.8c0,6-4.9,10.9-10.9,10.9c-24,0-43.5-19.5-43.5-43.5c0-6,4.9-10.9,10.9-10.9c0.6,0,1.2,0.1,1.8,0.2c0.1,0,0.2,0,0.3,0
			c1.1,0.2,1.9,1.1,2.1,2.1l2.7,16.2c0.1,0.4-0.1,0.8-0.5,0.9c0,0-2.6,1.3-3.9,1.9c-0.4,0.2-0.6,0.7-0.4,1.1
			c1.7,4.4,4.2,8.3,7.4,11.5c3.2,3.2,7.1,5.8,11.5,7.4c0.4,0.2,0.9,0,1.1-0.4c0.7-1.3,1.9-3.9,1.9-3.9c0.2-0.3,0.5-0.5,0.9-0.5
			l16.2,2.7c1.1,0.2,1.9,1,2.1,2.1c0,0.1,0,0.2,0,0.3C67.6,74.6,67.6,75.2,67.6,75.8z"/>
		
			<path style="clip-path:url(#SVGID_00000083780287797370870010000002679218175972208553_);fill:none;stroke:#CB1C49;stroke-width:2.5;stroke-linejoin:round;stroke-miterlimit:10;" d="
			M41.9,30.9c0-15,12.2-27.2,27.2-27.2s27.2,12.2,27.2,27.2S84.1,58.1,69.1,58.1c-4.1,0-8.1-0.9-11.6-2.6L50.9,58
			c-0.7,0.3-1.5-0.2-1.5-1l-0.5-8C44.5,44.2,41.9,37.9,41.9,30.9z"/>
	</g>
</g>
</svg>
