<svg width="38" height="41" viewBox="0 0 38 41" fill="none" xmlns="http://www.w3.org/2000/svg">
<path d="M37.2208 7.93205V0.39284L0.964859 16.1489V24.7047L37.2208 40.4608V32.9216L7.48755 20.3845L37.2208 7.93205Z" fill="#102D69"/>
</svg>
