<svg width="41" height="38" viewBox="0 0 41 38" fill="none" xmlns="http://www.w3.org/2000/svg">
<path d="M33.1361 0.878335L40.6753 0.891444L24.8562 37.12L16.3004 37.1051L0.607399 0.821776L8.1466 0.834885L20.632 30.5899L33.1361 0.878335Z" fill="#102D69"/>
</svg>
