<?xml version="1.0" encoding="utf-8"?>
<!-- Generator: Adobe Illustrator 26.0.2, SVG Export Plug-In . SVG Version: 6.00 Build 0)  -->
<svg version="1.1" id="Layer_1" xmlns="http://www.w3.org/2000/svg" xmlns:xlink="http://www.w3.org/1999/xlink" x="0px" y="0px"
	 viewBox="0 0 78.5 76.7" style="enable-background:new 0 0 78.5 76.7;" xml:space="preserve">
<style type="text/css">
	.st0{fill:none;stroke:#FFFFFF;stroke-width:3.4016;stroke-miterlimit:10;}
</style>
<g>
	<path class="st0" d="M40.3,17.4c11,0,20,8.9,20,20"/>
	<path class="st0" d="M40.3,5.1c17.8,0,32.2,14.4,32.2,32.2"/>
	<path class="st0" d="M9.1,7.6L9.1,7.6c-9.7,9.7-3.9,31.2,12.9,48s38.3,22.6,48,12.9c2.9-2.9,4.3-9.6,4.3-9.6
		c0.2-1.1-0.4-2.3-1.4-2.7l-17.6-7c-1-0.4-2.5-0.1-3.3,0.7L46.8,55c-1,1-2.4,1.2-3.5,0.7c-0.1,0-0.2-0.1-0.3-0.1c0,0-0.1,0-0.1-0.1
		c-3.9-2.1-8-5.2-11.8-9c-3.9-3.9-6.9-8-9-11.8c0,0,0-0.1-0.1-0.1c-0.1-0.1-0.1-0.2-0.1-0.3c-0.5-1.1-0.3-2.5,0.7-3.5l5.1-5.1
		c0.8-0.8,1.1-2.3,0.7-3.3l-7-17.6c-0.4-1-1.6-1.6-2.7-1.4C18.7,3.4,12,4.7,9.1,7.6z"/>
</g>
</svg>
