<svg width="13" height="20" viewBox="0 0 13 20" fill="none" xmlns="http://www.w3.org/2000/svg">
<path d="M2.025 20L0.25 18.225L8.475 10L0.25 1.775L2.025 0L12.025 10L2.025 20Z" fill="#33414D"/>
</svg>
