<?xml version="1.0" encoding="utf-8"?>
<!-- Generator: Adobe Illustrator 27.8.0, SVG Export Plug-In . SVG Version: 6.00 Build 0)  -->
<svg version="1.1" id="Layer_1" xmlns="http://www.w3.org/2000/svg" xmlns:xlink="http://www.w3.org/1999/xlink" x="0px" y="0px"
	 viewBox="0 0 150 150" style="enable-background:new 0 0 150 150;" xml:space="preserve">
<style type="text/css">
	.st0{fill:#FFFFFF;}
</style>
<g id="_08">
	<path class="st0" d="M74.5,21.9c-22.4,0-41.3,18.9-41.3,41.3c0,22,37.3,67,38.8,68.9l2.5,3l2.7-3.2c6.5-7.7,38.7-47.4,38.7-68.7
		C115.8,40.4,97.3,21.9,74.5,21.9z M74.9,124.4l-0.4,0.6l-0.4-0.6c-3.5-4.4-34.4-43.6-34.4-61.1c0-19.2,15.6-34.9,34.9-34.9
		c19.2,0,34.9,15.6,34.9,34.9C109.4,80.7,78.5,120,74.9,124.4z"/>
	<path class="st0" d="M74.5,47.5c-8.7,0-15.8,7.1-15.8,15.8c0,8.7,7.1,15.8,15.8,15.8c8.7,0,15.8-7.1,15.8-15.8
		C90.3,54.5,83.2,47.5,74.5,47.5z M74.5,73.7c-5.8,0-10.4-4.7-10.4-10.4s4.7-10.4,10.4-10.4s10.4,4.7,10.4,10.4S80.3,73.7,74.5,73.7
		z"/>
</g>
</svg>
