<?xml version="1.0" encoding="utf-8"?>
<!-- Generator: Adobe Illustrator 24.0.1, SVG Export Plug-In . SVG Version: 6.00 Build 0)  -->
<svg version="1.1" id="Layer_1" xmlns="http://www.w3.org/2000/svg" xmlns:xlink="http://www.w3.org/1999/xlink" x="0px" y="0px"
	 viewBox="0 0 18.4 18.4" style="enable-background:new 0 0 18.4 18.4;" xml:space="preserve">
<style type="text/css">
	.st0{fill:#183e78;}
</style>
<title>Asset 71</title>
<g id="Layer_2_1_">
	<g id="ARTWORK">
		<polygon class="st0" points="9.2,0 6.4,2.8 10.7,7.2 0,7.2 0,11.2 10.7,11.2 6.4,15.6 9.2,18.4 18.4,9.2 		"/>
	</g>
</g>
</svg>
