<?xml version="1.0" encoding="utf-8"?>
<!-- Generator: Adobe Illustrator 26.0.2, SVG Export Plug-In . SVG Version: 6.00 Build 0)  -->
<svg version="1.1" id="Layer_1" xmlns="http://www.w3.org/2000/svg" xmlns:xlink="http://www.w3.org/1999/xlink" x="0px" y="0px"
	 viewBox="0 0 736.3 600.8" style="enable-background:new 0 0 736.3 600.8;" xml:space="preserve">
<style type="text/css">
	.st0{fill:#E84E25;stroke:#FFFFFF;stroke-width:4.252;stroke-linecap:round;stroke-linejoin:round;stroke-miterlimit:10;}
	.st1{fill:#586271;stroke:#FFFFFF;stroke-width:4.252;stroke-miterlimit:10;}
	.st2{fill:#93C01F;stroke:#FFFFFF;stroke-width:4.252;stroke-linecap:round;stroke-linejoin:round;stroke-miterlimit:10;}
	.st3{fill:#586271;}
	.st4{fill:none;stroke:#FFFFFF;stroke-width:4.252;stroke-miterlimit:10;}
	.st5{fill:#FFFFFF;}
</style>
<g>
	<polygon class="st0" points="259.9,324.2 195.2,388.9 195.2,259.5 259.9,194.8 	"/>
	<polygon class="st1" points="324.6,259.5 195.2,259.5 259.9,194.8 389.3,194.8 	"/>
	<polygon class="st1" points="196.6,259.5 67.2,259.5 131.9,194.8 261.3,194.8 	"/>
	<g>
		<polygon class="st0" points="389.3,453.6 324.6,518.3 324.6,388.9 389.3,324.2 		"/>
		<polygon class="st0" points="324.6,388.9 195.2,388.9 259.9,324.2 389.3,324.2 		"/>
	</g>
	<rect x="65.8" y="259.5" class="st1" width="129.4" height="129.4"/>
	<g>
		<rect x="195.2" y="259.5" class="st1" width="129.4" height="129.4"/>
		<polygon class="st0" points="389.3,324.2 324.6,388.9 324.6,259.5 389.3,194.8 		"/>
	</g>
	<g>
		<rect x="324.6" y="388.9" class="st2" width="129.4" height="129.4"/>
		<polygon class="st2" points="518.7,453.6 454,518.3 454,388.9 518.7,324.2 		"/>
		<polygon class="st0" points="454,388.9 324.6,388.9 389.3,324.2 518.7,324.2 		"/>
	</g>
	<g>
		<rect x="324.6" y="259.5" class="st2" width="129.4" height="129.4"/>
		<polygon class="st2" points="518.7,324.2 454,388.9 454,259.5 518.7,194.8 		"/>
		<polygon class="st2" points="454,259.5 324.6,259.5 389.3,194.8 518.7,194.8 		"/>
	</g>
	<g>
		<g>
			<rect x="454" y="259.5" class="st1" width="129.4" height="129.4"/>
			<g>
				<polygon class="st3" points="648.1,324.2 583.4,388.9 583.4,259.5 648.1,194.8 				"/>
				<polygon class="st4" points="648.1,324.2 583.4,388.9 583.4,259.5 648.1,194.8 				"/>
			</g>
		</g>
	</g>
	<polygon class="st0" points="389.3,194.8 324.6,259.5 324.6,130.1 389.3,65.4 	"/>
	<rect x="324.6" y="130.1" class="st2" width="129.4" height="129.4"/>
	<polygon class="st2" points="518.7,194.8 454,259.5 454,130.1 518.7,65.4 	"/>
	<polygon class="st2" points="454,130.1 324.6,130.1 389.3,65.4 518.7,65.4 	"/>
	<polygon class="st1" points="583.4,259.5 454,259.5 518.7,194.8 648.1,194.8 	"/>
</g>
<g>
	<g>
		<path class="st5" d="M159.8,319.2v27.8c-3.5,2.6-7.2,4.4-11.1,5.6c-3.9,1.2-8.2,1.8-12.6,1.8c-5.6,0-10.7-0.9-15.2-2.6
			c-4.5-1.7-8.4-4.2-11.6-7.3c-3.2-3.1-5.7-6.8-7.4-11.1c-1.7-4.3-2.6-9-2.6-14.1c0-5.2,0.8-9.9,2.5-14.2c1.7-4.3,4.1-8,7.1-11.1
			c3.1-3.1,6.8-5.5,11.2-7.2c4.4-1.7,9.3-2.6,14.8-2.6c2.8,0,5.4,0.2,7.8,0.7c2.4,0.4,4.7,1.1,6.7,1.8c2.1,0.8,4,1.7,5.7,2.8
			c1.7,1.1,3.3,2.3,4.7,3.7l-3.7,5.8c-0.6,0.9-1.3,1.5-2.2,1.7c-0.9,0.2-1.9,0-3-0.7c-1-0.6-2.1-1.2-3.1-1.8c-1-0.6-2.2-1.1-3.5-1.6
			c-1.3-0.4-2.7-0.8-4.3-1.1c-1.6-0.3-3.4-0.4-5.5-0.4c-3.4,0-6.4,0.6-9.2,1.7s-5.1,2.8-7,4.9c-1.9,2.1-3.4,4.7-4.5,7.6
			s-1.6,6.3-1.6,10c0,3.9,0.6,7.4,1.7,10.5c1.1,3.1,2.7,5.7,4.7,7.8c2,2.1,4.5,3.8,7.4,4.9c2.9,1.1,6.1,1.7,9.6,1.7
			c2.5,0,4.8-0.3,6.8-0.8c2-0.5,3.9-1.3,5.8-2.2v-12.4h-8.6c-0.8,0-1.5-0.2-1.9-0.7c-0.5-0.5-0.7-1-0.7-1.7v-7.2H159.8z"/>
		<path class="st5" d="M288.3,353.6h-11.5c-2.2,0-3.8-0.9-4.7-2.6l-14.4-22c-0.5-0.8-1.1-1.4-1.8-1.8c-0.6-0.3-1.6-0.5-2.9-0.5h-5.5
			v26.8h-12.8v-68.6h20.9c4.6,0,8.6,0.5,12,1.4c3.3,1,6.1,2.3,8.2,4.1c2.1,1.7,3.7,3.8,4.7,6.2c1,2.4,1.5,5.1,1.5,8
			c0,2.3-0.3,4.5-1,6.5c-0.7,2.1-1.7,3.9-2.9,5.6c-1.3,1.7-2.9,3.1-4.7,4.4c-1.9,1.3-4,2.3-6.4,3c0.8,0.5,1.6,1,2.3,1.7
			c0.7,0.6,1.3,1.4,1.9,2.3L288.3,353.6z M255.5,317.6c2.4,0,4.5-0.3,6.3-0.9c1.8-0.6,3.3-1.4,4.4-2.5c1.2-1.1,2-2.3,2.6-3.8
			c0.6-1.5,0.9-3.1,0.9-4.8c0-3.5-1.1-6.2-3.4-8c-2.3-1.9-5.8-2.8-10.5-2.8h-8.2v22.8H255.5z"/>
		<path class="st5" d="M397.8,353.6H385v-68.6h12.8V353.6z"/>
		<path class="st5" d="M551.9,319.3c0,5-0.8,9.7-2.5,13.9c-1.7,4.2-4,7.8-7.1,10.9c-3,3-6.7,5.4-11,7.1c-4.3,1.7-9,2.5-14.2,2.5H491
			v-68.6h26.1c5.2,0,10,0.8,14.2,2.5c4.3,1.7,7.9,4,11,7.1c3,3,5.4,6.6,7.1,10.8C551.1,309.6,551.9,314.2,551.9,319.3z M538.8,319.3
			c0-3.8-0.5-7.1-1.5-10.1c-1-3-2.4-5.5-4.3-7.6s-4.2-3.7-6.8-4.8c-2.7-1.1-5.7-1.7-9-1.7h-13.3v48.3h13.3c3.4,0,6.4-0.6,9-1.7
			c2.7-1.1,5-2.7,6.8-4.8c1.9-2.1,3.3-4.6,4.3-7.6C538.3,326.4,538.8,323,538.8,319.3z"/>
	</g>
	<g>
		<path class="st5" d="M382.8,170.3v20.3h25.7v10.2h-25.7v28h-12.8v-68.6h43.3v10.2H382.8z"/>
	</g>
	<g>
		<path class="st5" d="M420.6,479.6h-12.7c-0.9,0-1.6-0.2-2.1-0.7c-0.5-0.4-0.9-0.9-1.3-1.5l-15.9-26.3c-0.3,0.8-0.6,1.5-0.9,2
			l-15.2,24.3c-0.4,0.5-0.8,1-1.3,1.5c-0.5,0.5-1.1,0.7-1.9,0.7h-11.9l22.8-35.3L358.2,411H371c0.9,0,1.5,0.1,1.9,0.4
			c0.4,0.2,0.8,0.6,1.1,1.2l15.6,25.2c0.3-0.8,0.7-1.6,1.1-2.4l14.3-22.5c0.3-0.6,0.7-1,1.1-1.3c0.4-0.3,0.9-0.4,1.6-0.4H420
			l-22.1,32.8L420.6,479.6z"/>
	</g>
</g>
</svg>
