<?xml version="1.0" encoding="utf-8"?>
<!-- Generator: Adobe Illustrator 24.0.3, SVG Export Plug-In . SVG Version: 6.00 Build 0)  -->
<svg version="1.1" id="Layer_1" xmlns="http://www.w3.org/2000/svg" xmlns:xlink="http://www.w3.org/1999/xlink" x="0px" y="0px"
	 viewBox="0 0 50 62.1" style="enable-background:new 0 0 50 62.1;" xml:space="preserve">
<style type="text/css">
	.st0{fill:none;}
	.st1{fill:#ED6B48;}
	.st2{clip-path:url(#SVGID_2_);fill:#ED6B48;}
	.st3{clip-path:url(#SVGID_4_);fill:#FFFFFF;}
</style>
<g>
	<g>
		<g>
			<polygon class="st0" points="6.6,53.9 6.6,1.6 35.7,1.6 48.3,14.2 48.3,53.9 			"/>
			<polygon class="st1" points="49.3,53.9 47.3,53.9 47.3,14.6 35.3,2.6 7.6,2.6 7.6,53.9 5.6,53.9 5.6,0.6 36.2,0.6 49.3,13.8 			
				"/>
		</g>
		<g>
			<polygon class="st0" points="13.2,53.9 6.6,53.9 6.6,1.6 35.1,1.6 35.1,14.8 48.3,14.8 48.3,53.9 41.7,53.9 			"/>
			<polygon class="st1" points="49.3,54.9 41.7,54.9 41.7,52.9 47.3,52.9 47.3,15.8 34.1,15.8 34.1,2.6 7.6,2.6 7.6,52.9 13.2,52.9 
				13.2,54.9 5.6,54.9 5.6,0.6 36.1,0.6 36.1,13.8 49.3,13.8 			"/>
		</g>
		<rect y="8.9" class="st1" width="29.8" height="13.2"/>
	</g>
</g>
<g>
	<g>
		<defs>
			
				<rect id="SVGID_1_" x="16.6" y="33.3" transform="matrix(0.7382 -0.6746 0.6746 0.7382 -22.9581 30.2215)" width="21.7" height="22.7"/>
		</defs>
		<clipPath id="SVGID_2_">
			<use xlink:href="#SVGID_1_"  style="overflow:visible;"/>
		</clipPath>
		<path class="st2" d="M28.5,59.1l8.7-9.4c0.7-0.8,0.7-2,0-2.8s-1.8-0.8-2.5,0l-5.1,5.5l0.2-20.5c0-1.1-0.9-2.1-2.1-2.1
			c-1.1,0-2.1,0.9-2.1,2.1l-0.2,21L20,46.7c-0.7-0.8-1.8-0.8-2.5,0s-0.7,2,0,2.8l8.5,9.6c0.3,0.4,0.8,0.6,1.3,0.6
			C27.7,59.7,28.1,59.5,28.5,59.1"/>
	</g>
</g>
<g>
	<defs>
		<rect id="SVGID_3_" x="3.2" y="11.1" width="23.3" height="8.8"/>
	</defs>
	<clipPath id="SVGID_4_">
		<use xlink:href="#SVGID_3_"  style="overflow:visible;"/>
	</clipPath>
	<path class="st3" d="M3.7,12.1c0.3,0,0.5-0.2,0.5-0.5c0-0.3-0.2-0.5-0.5-0.5s-0.5,0.2-0.5,0.5C3.2,11.8,3.5,12.1,3.7,12.1"/>
	<path class="st3" d="M24.7,14.5c0.4,0,0.6,0.1,0.9,0.2c0.1,0,0.2,0.1,0.3,0.1c0.2,0,0.4-0.2,0.4-0.4c0-0.2-0.1-0.3-0.3-0.4
		c-0.3-0.2-0.8-0.3-1.3-0.3c-1,0-2,0.8-2,1.8c0,1.1,1,1.5,1.7,1.6c0.6,0.2,1.2,0.4,1.2,1c0,0.5-0.4,1-1.1,1c-0.4,0-0.7-0.2-1-0.3
		c-0.1-0.1-0.3-0.1-0.4-0.1c-0.2,0-0.4,0.2-0.4,0.4c0,0.2,0.1,0.4,0.4,0.5c0.5,0.2,0.9,0.4,1.4,0.4c1.2,0,2-0.8,2-1.8
		c0-1.1-0.9-1.5-1.7-1.7c-0.5-0.2-1.2-0.4-1.2-0.9C23.7,14.9,24.2,14.5,24.7,14.5 M19.3,17h1.2v1c0,0.7-0.5,1.1-1.2,1.1
		c-0.7,0-1.2-0.4-1.2-1C18,17.4,18.5,17,19.3,17 M21.4,15.8c0-1.2-1-2.1-2.1-2.1c-0.5,0-1.1,0.2-1.4,0.4c-0.2,0.1-0.3,0.2-0.3,0.4
		c0,0.2,0.2,0.4,0.4,0.4c0.1,0,0.3-0.1,0.4-0.1c0.3-0.1,0.6-0.3,0.9-0.3c0.7,0,1.2,0.6,1.2,1.3v0.5h-1.2c-1.2,0-2.1,0.6-2.1,1.8
		c0,1.1,0.8,1.9,1.9,1.9c0.4,0,0.7-0.2,1-0.3c0.1-0.1,0.2-0.1,0.3-0.1c0.1,0,0.2,0.1,0.2,0.2c0.1,0.1,0.2,0.2,0.4,0.2
		c0.2,0,0.4-0.1,0.4-0.4V15.8z M15.1,16.3h-2.4v-0.5c0-0.7,0.5-1.3,1.2-1.3c0.7,0,1.2,0.6,1.2,1.3V16.3z M15.5,17
		c0.3,0,0.5-0.2,0.5-0.5v-0.8c0-1.2-1-2.1-2.1-2.1c-1.1,0-2.1,0.9-2.1,2.1v2c0,1.2,0.9,2.1,2.2,2.1c0.6,0,1.1-0.2,1.5-0.4
		c0.2-0.1,0.3-0.2,0.3-0.4c0-0.2-0.2-0.4-0.4-0.4c-0.1,0-0.2,0-0.4,0.1c-0.2,0.1-0.6,0.3-1,0.3c-0.7,0-1.3-0.5-1.3-1.3V17H15.5z
		 M6.7,15.8c0-0.8,0.5-1.3,1.2-1.3c0.7,0,1.2,0.5,1.2,1.3v2c0,0.7-0.6,1.3-1.3,1.3c-0.7,0-1.2-0.6-1.2-1.3V15.8z M10.1,19.5v-8
		c0-0.3-0.2-0.4-0.5-0.4c-0.3,0-0.5,0.2-0.5,0.4v2.4c0,0.1,0,0.1-0.1,0.1S9,14.1,9,14c-0.3-0.2-0.6-0.4-1.1-0.4
		c-1.1,0-2.1,0.8-2.1,2.1v2c0,1.2,0.9,2.1,1.9,2.1c0.5,0,0.8-0.2,1-0.4c0.1-0.1,0.3-0.1,0.4-0.1s0.2,0.1,0.3,0.2
		c0.1,0.1,0.2,0.3,0.4,0.3C10,19.8,10.1,19.7,10.1,19.5 M4.2,14.2c0-0.3-0.2-0.4-0.5-0.4c-0.3,0-0.5,0.2-0.5,0.4v5.2
		c0,0.3,0.2,0.4,0.5,0.4c0.3,0,0.5-0.2,0.5-0.4V14.2z"/>
</g>
</svg>
