<?xml version="1.0" encoding="utf-8"?>
<!-- Generator: Adobe Illustrator 25.4.1, SVG Export Plug-In . SVG Version: 6.00 Build 0)  -->
<svg version="1.1" id="Layer_1" xmlns="http://www.w3.org/2000/svg" xmlns:xlink="http://www.w3.org/1999/xlink" x="0px" y="0px"
	 viewBox="0 0 314.6 328.7" style="enable-background:new 0 0 314.6 328.7;" xml:space="preserve">
<style type="text/css">
	.st0{clip-path:url(#SVGID_00000132793926177933121110000002947303589903123345_);fill:#ED6B48;}
</style>
<g>
	<defs>
		<rect id="SVGID_1_" x="8.9" y="6.2" width="301.4" height="314.3"/>
	</defs>
	<clipPath id="SVGID_00000161621641450406237960000011145515114540954546_">
		<use xlink:href="#SVGID_1_"  style="overflow:visible;"/>
	</clipPath>
	<path style="clip-path:url(#SVGID_00000161621641450406237960000011145515114540954546_);fill:#ED6B48;" d="M34.6,6.3l177.6,14.9
		c14.2,1.2,26,13.8,26.2,28.1c0.2,14.2-11.3,24.9-25.5,23.7l-104-8.7l193.7,207.7c10.8,11.6,10.2,30-1.4,40.9
		c-11.6,10.8-30,10.2-40.9-1.4L61.4,98l1.6,114.7c0.2,14.2-11.3,24.9-25.5,23.7c-14.2-1.2-26-13.8-26.2-28.1L8.9,30.2
		c-0.1-7.2,2.8-13.5,7.5-17.8C21,8.1,27.4,5.7,34.6,6.3"/>
</g>
</svg>
