<?xml version="1.0" encoding="utf-8"?>
<!-- Generator: Adobe Illustrator 25.4.1, SVG Export Plug-In . SVG Version: 6.00 Build 0)  -->
<svg version="1.1" id="Layer_1" xmlns="http://www.w3.org/2000/svg" xmlns:xlink="http://www.w3.org/1999/xlink" x="0px" y="0px"
	 viewBox="0 0 314.6 328.7" style="enable-background:new 0 0 314.6 328.7;" xml:space="preserve">
<style type="text/css">
	.st0{clip-path:url(#SVGID_00000070834334754825424780000010852493550582501771_);fill:#FFFFFF;}
</style>
<g>
	<defs>
		<rect id="SVGID_1_" x="8.9" y="6.2" width="301.4" height="314.3"/>
	</defs>
	<clipPath id="SVGID_00000048467394069775479650000006632495439424192899_">
		<use xlink:href="#SVGID_1_"  style="overflow:visible;"/>
	</clipPath>
	<path style="clip-path:url(#SVGID_00000048467394069775479650000006632495439424192899_);fill:#FFFFFF;" d="M284.5,6.3L106.9,21.1
		C92.7,22.3,81,35,80.8,49.2C80.6,63.4,92,74.1,106.2,72.9l104-8.7L16.6,271.9c-10.8,11.6-10.2,30,1.4,40.9
		c11.6,10.8,30,10.2,40.9-1.4L257.8,98l-1.6,114.7c-0.2,14.2,11.3,24.9,25.5,23.7c14.2-1.2,26-13.8,26.2-28.1l2.5-178.2
		c0.1-7.2-2.8-13.5-7.5-17.8C298.2,8.1,291.7,5.7,284.5,6.3"/>
</g>
</svg>
