<?xml version="1.0" encoding="utf-8"?>
<!-- Generator: Adobe Illustrator 24.0.1, SVG Export Plug-In . SVG Version: 6.00 Build 0)  -->
<svg version="1.1" id="Layer_1" xmlns="http://www.w3.org/2000/svg" xmlns:xlink="http://www.w3.org/1999/xlink" x="0px" y="0px"
	 viewBox="0 0 52 67.7" style="enable-background:new 0 0 52 67.7;" xml:space="preserve">
<style type="text/css">
	.st0{fill:#E3E3D8;}
	.st1{fill:#CFCDBD;}
	.st2{fill:#BD353C;}
	.st3{fill:#FFFFFF;}
</style>
<title>Asset 76</title>
<g id="Layer_2_1_">
	<g id="ARTWORK">
		<path class="st0" d="M36.8,0H1.8C0.8,0,0,0.8,0,2.3v64.1c0,0.4,0.8,1.2,1.8,1.2h48.4c1,0,1.8-0.8,1.8-1.2V15.7
			c0-0.8-0.1-1.1-0.3-1.3L37.6,0.3C37.4,0.1,37.1,0,36.8,0z"/>
		<polygon class="st1" points="37.5,0.2 37.5,14.5 51.8,14.5 		"/>
		<path class="st2" d="M15.7,40.3L15.7,40.3c-0.4,0-0.8-0.1-1.2-0.4c-0.9-0.6-1.4-1.6-1.4-2.7c0.2-2,2.6-4,7.2-6.1
			c1.9-4.2,3.4-8.5,4.6-13c-1.2-2.6-2.4-6-1.5-8c0.2-0.7,0.7-1.2,1.4-1.5c0.4-0.1,0.8-0.2,1.2-0.2c0.6,0,1.1,0.8,1.5,1.3
			s1.2,1.4-0.5,8.2c1.6,3.3,3.7,6.4,6.1,9.1c1.3-0.3,2.7-0.4,4.1-0.4c1.9,0,3,0.4,3.5,1.4c0.4,0.9,0.2,1.9-0.5,2.6
			c-0.6,0.9-1.6,1.4-2.7,1.4c-1.5,0-3.2-0.9-5.1-2.8C29,30,25.4,31.1,22,32.6c-0.8,1.8-1.8,3.5-2.9,5.1
			C17.9,39.5,16.8,40.3,15.7,40.3z M18.9,34.1c-2.6,1.5-3.6,2.7-3.7,3.3c0,0.1,0,0.4,0.5,0.8C15.9,38.2,17,37.7,18.9,34.1z
			 M35.4,28.7c1,0.8,1.2,1.1,1.9,1.1c0.5,0,1.1-0.2,1.5-0.5c0.1-0.2,0.2-0.3,0.3-0.5c-0.2-0.1-0.3-0.2-1.4-0.2
			C36.9,28.6,36.1,28.6,35.4,28.7z M26.4,20.7c-0.9,3.1-2,6.2-3.2,9.1c2.5-1,5.2-1.8,7.8-2.4C29.2,25.4,27.7,23.1,26.4,20.7
			L26.4,20.7z M25.7,10.5c-1,1.1-0.9,2.8,0.1,3.9C26.9,11.9,25.7,10.5,25.7,10.5L25.7,10.5z"/>
		<path class="st2" d="M50.2,67.7H1.8c-1,0-1.8-0.8-1.8-1.8V47.1h52v18.8C52,66.9,51.2,67.7,50.2,67.7
			C50.2,67.7,50.2,67.7,50.2,67.7z"/>
		<path class="st3" d="M13.1,64h-2V51.9h3.5c0.5,0,1,0.1,1.5,0.2c0.5,0.2,1,0.4,1.4,0.7c0.4,0.3,0.7,0.7,1,1.2
			c0.2,0.5,0.4,1,0.4,1.6c0,0.6-0.1,1.1-0.3,1.7c-0.2,0.5-0.5,0.9-0.9,1.3c-0.4,0.4-0.9,0.6-1.4,0.8c-0.6,0.2-1.2,0.3-1.8,0.3h-1.5
			V64z M13.1,53.3v4.8H15c0.2,0,0.5,0,0.7-0.1c0.2-0.1,0.5-0.2,0.7-0.4c0.2-0.2,0.4-0.5,0.5-0.8c0.2-0.6,0.2-1.3,0.1-1.9
			c-0.1-0.3-0.2-0.5-0.3-0.7c-0.2-0.3-0.4-0.5-0.7-0.6c-0.4-0.2-0.8-0.3-1.2-0.2L13.1,53.3z"/>
		<path class="st3" d="M31.1,57.6c0,0.9-0.1,1.7-0.3,2.6c-0.2,0.6-0.5,1.3-0.8,1.8c-0.3,0.4-0.7,0.8-1.1,1.1
			c-0.4,0.3-0.8,0.5-1.2,0.6c-0.3,0.1-0.7,0.2-1,0.3c-0.3,0-0.6,0.1-0.7,0.1h-4.6V51.9h3.7c0.9,0,1.8,0.1,2.7,0.5
			c0.7,0.3,1.4,0.7,1.9,1.3c0.5,0.5,0.9,1.2,1.1,1.8C31,56.2,31.1,56.9,31.1,57.6z M25.2,62.6c1.1,0.1,2.2-0.4,2.9-1.3
			c0.7-1.1,1-2.4,0.9-3.7c0-0.5-0.1-1-0.2-1.5c-0.1-0.5-0.4-1-0.7-1.3c-0.4-0.4-0.9-0.8-1.4-1c-0.7-0.3-1.5-0.4-2.3-0.4h-1.2v9.2
			L25.2,62.6z"/>
		<path class="st3" d="M36,53.4v3.8h5.1v1.4H36V64h-2V51.9h7.6v1.5H36z"/>
	</g>
</g>
</svg>
