<?xml version="1.0" encoding="utf-8"?>
<!-- Generator: Adobe Illustrator 24.0.1, SVG Export Plug-In . SVG Version: 6.00 Build 0)  -->
<svg version="1.1" id="Layer_1" xmlns="http://www.w3.org/2000/svg" xmlns:xlink="http://www.w3.org/1999/xlink" x="0px" y="0px"
	 viewBox="0 0 11 11" style="enable-background:new 0 0 11 11;" xml:space="preserve">
<style type="text/css">
	.st0{fill:#FFFFFF;}
</style>
<title>Asset 72</title>
<g id="Layer_2_1_">
	<g id="ARTWORK">
		<path class="st0" d="M0,11V1.4h5.5v1.3H1.4v6.9h6.8V5.5h1.4V11H0z"/>
		<path class="st0" d="M11,3.4L9.7,2.2L6.2,5.8l-1-1l3.6-3.5L7.6,0.1V0H11V3.4z"/>
	</g>
</g>
</svg>
