<?xml version="1.0" encoding="utf-8"?>
<!-- Generator: Adobe Illustrator 25.4.1, SVG Export Plug-In . SVG Version: 6.00 Build 0)  -->
<svg version="1.1" id="Layer_1" xmlns="http://www.w3.org/2000/svg" xmlns:xlink="http://www.w3.org/1999/xlink" x="0px" y="0px"
	 viewBox="0 0 800 315" style="enable-background:new 0 0 800 315;" xml:space="preserve">
<style type="text/css">
	.st0{fill:#FFFFFF;}
</style>
<g>
	<path class="st0" d="M26.3,45.3c8.9,0,16.2-7.3,16.2-16.2c0-9-7.3-16.2-16.2-16.2s-16.2,7.3-16.2,16.2C10.1,38,17.4,45.3,26.3,45.3
		"/>
	<path class="st0" d="M727.3,126.9c13,0,21.2,3.7,30.9,8.1c3.7,1.6,6.5,3.3,10.2,3.3c7.7,0,13.8-6.1,13.8-13.4
		c0-6.9-4.1-11.4-10.6-14.7c-11.4-6.1-26.9-11-44.4-11c-35,0-66,26.9-66,60.7c0,35.8,34.2,48.9,55.8,55
		c21.6,6.1,39.9,13.8,39.9,32.6c0,17.5-14.3,32.2-35.8,32.2c-11.8,0-24.8-5.7-31.8-9.4c-4.9-2.8-9.4-4.5-13.4-4.5
		c-7.3,0-14.3,5.3-14.3,13.8c0,7.3,3.7,11.8,11.8,15.9c15.5,7.7,29.7,11.8,47.6,11.8c39.5,0,66.4-26.5,66.4-60.7
		c0-38.3-29.7-49.3-55.8-57c-17.5-5.3-40.3-11.8-40.3-29.7C691.4,141.6,708.1,126.9,727.3,126.9 M544.1,211.6h39.1v32.2
		c0,22.8-17.9,35.8-40.3,35.8c-22.8,0-39.9-12.2-39.9-34.6C502.9,223,520.4,211.6,544.1,211.6 M614.1,169.2c0-40.3-32.6-70-70.8-70
		c-17.9,0-35.4,6.5-46.4,12.2c-6.1,3.3-11,7.7-11,14.7c0,7.3,5.7,13.8,13.8,13.8c4.1,0,9-2.4,12.2-4.1c9-4.5,19.1-9,31.4-9
		c23.2,0,39.9,20,39.9,42.3v17.1h-39.1c-40.3,0-71.7,19.5-71.7,58.6c0,37.5,27.7,62.3,64.3,62.3c14.3,0,23.6-5.3,32.6-10.6
		c4.1-2.4,7.3-4.9,11.4-4.9c3.7,0,5.3,2.4,8.1,5.7c3.3,4.1,7.3,8.1,12.6,8.1c7.3,0,12.6-4.1,12.6-11.8V169.2z M404,186.3h-80.6
		v-17.5c0-24.4,17.9-41.9,40.3-41.9c22.4,0,40.3,18.7,40.3,41.9V186.3z M418.7,211.6c9.8,0,16.3-6.9,16.3-15.9v-26.9
		c0-41.1-35-69.6-71.3-69.6c-36.2,0-71.3,28.5-71.3,69.6v67.6c0,41.1,30.9,70.8,72.9,70.8c21.2,0,37.5-6.9,49.3-14.3
		c6.5-4.1,10.2-8.1,10.2-14.7c0-7.7-6.1-14.3-13.4-14.3c-4.5,0-7.7,1.6-12.2,4.5c-7.7,4.9-19.1,11-33.8,11
		c-23.2,0-41.9-17.9-41.9-43.2v-24.8H418.7z M126.7,170.1c0-25.2,18.3-43.2,41.1-43.2c22.8,0,41.1,17.9,41.1,43.2v66.4
		c0,23.2-19.1,43.2-41.9,43.2s-40.3-20.4-40.3-43.2V170.1z M239.9,293V27.5c0-9-6.1-14.7-15.5-14.7c-9.4,0-15.5,5.7-15.5,14.7v80.6
		c0,2.4-1.2,4.9-3.3,4.9c-2,0-2.8-0.8-4.5-2c-11-8.1-21.2-11.8-35.4-11.8c-37.5,0-70,27.7-70,70.8v66c0,41.1,28.5,71.3,63.9,71.3
		c15.5,0,26.5-6.9,34.6-11.8c4.5-2.9,8.6-4.9,11.8-4.9c3.3,0,6.1,2.8,8.6,5.7c3.3,4.1,7.3,8.6,13,8.6
		C234.6,304.8,239.9,300.4,239.9,293 M42,116.3c0-9-6.1-14.7-15.5-14.7s-15.5,5.7-15.5,14.7v173.9c0,9,6.1,14.7,15.5,14.7
		S42,299.1,42,290.2V116.3z"/>
</g>
</svg>
