<?xml version="1.0" encoding="utf-8"?>
<!-- Generator: Adobe Illustrator 26.5.0, SVG Export Plug-In . SVG Version: 6.00 Build 0)  -->
<svg version="1.1" id="Layer_1" xmlns="http://www.w3.org/2000/svg" xmlns:xlink="http://www.w3.org/1999/xlink" x="0px" y="0px"
	 viewBox="0 0 59.1 58.4" style="enable-background:new 0 0 59.1 58.4;" xml:space="preserve">
<style type="text/css">
	.st0{clip-path:url(#SVGID_00000045585704910235001780000013716164271069703850_);fill:#FFFFFF;}
	.st1{clip-path:url(#SVGID_00000045585704910235001780000013716164271069703850_);fill:#76B82A;}
</style>
<g>
	<defs>
		<rect id="SVGID_1_" x="7" y="8.2" width="41.2" height="41.2"/>
	</defs>
	<clipPath id="SVGID_00000007397194606087912920000005679933317255006126_">
		<use xlink:href="#SVGID_1_"  style="overflow:visible;"/>
	</clipPath>
	<path style="clip-path:url(#SVGID_00000007397194606087912920000005679933317255006126_);fill:#FFFFFF;" d="M27.6,49.4
		c11.4,0,20.6-9.2,20.6-20.6S39,8.2,27.6,8.2S7,17.4,7,28.8S16.2,49.4,27.6,49.4"/>
	<path style="clip-path:url(#SVGID_00000007397194606087912920000005679933317255006126_);fill:#76B82A;" d="M19.5,16.4
		c1.5,0,2.7,1.2,2.7,2.7c0,1.6-1.3,2.8-2.7,2.7c-1.4,0-2.7-1.2-2.7-2.7C16.8,17.7,18,16.4,19.5,16.4"/>
	<path style="clip-path:url(#SVGID_00000007397194606087912920000005679933317255006126_);fill:#76B82A;" d="M21.1,39.2h-3.2
		c-0.4,0-0.7-0.3-0.7-0.8V24.8c0-0.4,0.3-0.8,0.7-0.8h3.2c0.4,0,0.7,0.3,0.7,0.8v13.7C21.8,38.9,21.5,39.2,21.1,39.2"/>
	<path style="clip-path:url(#SVGID_00000007397194606087912920000005679933317255006126_);fill:#76B82A;" d="M39.3,28.8
		c0-2.9-2.3-5.2-5.1-5.2h-0.8c-1.5,0-2.9,0.8-3.7,2c-0.1,0.1-0.2,0.3-0.2,0.4c0,0,0,0,0,0v-1.7c0-0.2-0.1-0.3-0.3-0.3H25
		c-0.2,0-0.3,0.1-0.3,0.3v14.6c0,0.2,0.1,0.3,0.3,0.3l4,0c0.2,0,0.3-0.1,0.3-0.3v-8.4c0-1.5,1.1-2.7,2.6-2.7c0.7,0,1.4,0.3,1.9,0.8
		c0.5,0.5,0.8,1.1,0.8,1.9v8.5c0,0.2,0.1,0.3,0.3,0.3h4c0.2,0,0.3-0.1,0.3-0.3V28.8z"/>
</g>
</svg>
