<?xml version="1.0" encoding="utf-8"?>
<!-- Generator: Adobe Illustrator 26.5.0, SVG Export Plug-In . SVG Version: 6.00 Build 0)  -->
<svg version="1.1" id="Layer_1" xmlns="http://www.w3.org/2000/svg" xmlns:xlink="http://www.w3.org/1999/xlink" x="0px" y="0px"
	 viewBox="0 0 119 114.9" style="enable-background:new 0 0 119 114.9;" xml:space="preserve">
<style type="text/css">
	
		.st0{clip-path:url(#SVGID_00000117677263444883918980000014557013924176590257_);fill:none;stroke:#54575C;stroke-width:1.8;stroke-linecap:round;stroke-linejoin:round;stroke-miterlimit:3;}
</style>
<g>
	<defs>
		<rect id="SVGID_1_" x="22" y="9.6" width="79.5" height="91.3"/>
	</defs>
	<clipPath id="SVGID_00000069390755726385070710000015316401255448901018_">
		<use xlink:href="#SVGID_1_"  style="overflow:visible;"/>
	</clipPath>
	
		<path style="clip-path:url(#SVGID_00000069390755726385070710000015316401255448901018_);fill:none;stroke:#54575C;stroke-width:1.8;stroke-linecap:round;stroke-linejoin:round;stroke-miterlimit:3;" d="
		M91.2,91.4c-3.7-3.4-7.3-5.7-10.7-7.1 M77.8,78.6C71.6,70.9,64,69.8,55,75.3c-9.9,6.1-17.2,8.6-22,7.5c2.2,7.8,7.7,13,16.5,15.8
		c1.5,0.5,3.2,0.9,4.8,1.1c6.5,0.9,12.3,0,17.3-2.7c4.9-2.6,7.8-6.8,8.8-12.8c-0.1,0-0.1-0.1-0.2-0.1c-4.4-1.7-8.7-1.8-12.9-0.3
		c-1.7,0.6-3.2,1.1-4.7,1.5c-0.1,0-0.2,0-0.3,0.1L62,85.6c-2.1,0.5-4,0.5-5.6,0.1 M41,53h20.8v-7.2c-3.4,0-6.5-0.7-9.3-2.1
		c-1.9-1-3.7-2.3-5.4-3.9c-0.2-0.2-0.4-0.5-0.6-0.7 M82.5,53H61.8v7.2c3.4,0,6.5,0.7,9.3,2.1c1.9,1,3.7,2.3,5.4,4
		c0.2,0.2,0.4,0.4,0.6,0.7 M61.8,66.9v-6.6c-3.4,0-6.5,0.7-9.3,2.1c-1.9,1-3.7,2.3-5.4,4c-0.2,0.2-0.4,0.4-0.6,0.7 M61.8,32.3v13.5
		c3.4,0,6.5-0.7,9.3-2.1c1.9-1,3.7-2.3,5.4-3.9c0.2-0.2,0.4-0.5,0.6-0.7 M85.2,78.8c9.3-12.3,14.3-26.4,15.2-42.2
		c0.1-1.7,0.2-3.5,0.2-5.3c0-1.2,0-2.5-0.1-3.7c-1-0.1-1.9-0.3-2.9-0.4c-13.3-2.3-25.3-7.9-35.9-16.7c-10.6,8.8-22.6,14.3-35.8,16.7
		c-1,0.2-2,0.3-2.9,0.4c-0.1,1.2-0.1,2.4-0.1,3.7c0,1.8,0.1,3.5,0.2,5.2c0.9,15.2,5.6,28.8,14.2,40.8 M50.6,70.6
		c-1.2-0.8-2.4-1.8-3.5-2.8c-0.2-0.2-0.4-0.4-0.6-0.7c-3.6-3.9-5.4-8.6-5.4-14c0-5.4,1.8-10.1,5.4-14c0.2-0.2,0.4-0.5,0.6-0.7
		c0.9-0.9,1.7-1.6,2.7-2.3c3.4-2.5,7.4-3.8,11.8-3.8h0.2H62c4.5,0,8.4,1.3,11.8,3.8c0.9,0.7,1.8,1.4,2.7,2.3
		c0.2,0.2,0.4,0.4,0.6,0.7c3.6,3.9,5.4,8.6,5.4,14c0,5.4-1.8,10.1-5.4,14c-0.2,0.2-0.4,0.5-0.6,0.7c-0.3,0.3-0.6,0.6-1,0.9"/>
</g>
</svg>
