<?xml version="1.0" encoding="utf-8"?>
<!-- Generator: Adobe Illustrator 26.1.0, SVG Export Plug-In . SVG Version: 6.00 Build 0)  -->
<svg version="1.1" id="Layer_1" xmlns="http://www.w3.org/2000/svg" xmlns:xlink="http://www.w3.org/1999/xlink" x="0px" y="0px"
	 viewBox="0 0 61.7 66.7" style="enable-background:new 0 0 61.7 66.7;" xml:space="preserve">
<style type="text/css">
	.st0{fill:#005371;}
</style>
<g>
	<path class="st0" d="M26.9,4.9l23.3,25.2L26.9,55.5H2.4l23.3-25.4L2.4,4.9H26.9z"/>
</g>
</svg>
