<?xml version="1.0" encoding="utf-8"?>
<!-- Generator: Adobe Illustrator 24.0.1, SVG Export Plug-In . SVG Version: 6.00 Build 0)  -->
<svg version="1.1" id="Layer_1" xmlns="http://www.w3.org/2000/svg" xmlns:xlink="http://www.w3.org/1999/xlink" x="0px" y="0px"
	 viewBox="0 0 25.9 25.8" style="enable-background:new 0 0 25.9 25.8;" xml:space="preserve">
<style type="text/css">
	.st0{fill:#485156;}
</style>
<title>Asset 78</title>
<g id="Layer_2_1_">
	<g id="ARTWORK">
		<path class="st0" d="M16.9,20.3c-5,3.1-11.4,1.7-14.9-3C-1.5,12.4-0.3,5.5,4.6,2c3.7-2.6,8.5-2.7,12.3-0.3c5,3.3,6.5,9.9,3.5,15
			l1.6,1.6c1,1,2.1,2,3.1,3.1c1,1,1,2.7,0,3.7c-0.5,0.5-1.2,0.8-1.9,0.7c-0.7,0-1.3-0.3-1.8-0.8c-1.4-1.4-2.8-2.8-4.2-4.2
			C17,20.6,16.9,20.5,16.9,20.3z M10.9,18.1c3.9,0.1,7.2-3,7.2-7s-3-7.2-7-7.2c-3.9-0.1-7.1,3-7.2,6.9C3.8,14.7,6.9,18,10.9,18.1
			L10.9,18.1z"/>
	</g>
</g>
</svg>
