<svg width="35" height="25" viewBox="0 0 35 25" fill="none" xmlns="http://www.w3.org/2000/svg">
<path d="M31.6398 1.31006H2.42979C1.51852 1.31006 0.779785 2.04879 0.779785 2.96006V22.3301C0.779785 23.2413 1.51852 23.9801 2.42979 23.9801H31.6398C32.5511 23.9801 33.2898 23.2413 33.2898 22.3301V2.96006C33.2898 2.04879 32.5511 1.31006 31.6398 1.31006Z" stroke="#0086c0" stroke-width="1.5" stroke-linecap="round" stroke-linejoin="round" />
<path d="M1.96983 22.8399C1.30983 23.4699 1.51983 23.9799 2.42983 23.9799H31.6398C32.5498 23.9799 32.7498 23.4699 32.0998 22.8399L21.4598 12.6499L18.2298 15.7399C17.5698 16.3699 16.4998 16.3699 15.8398 15.7399L12.6098 12.6499L1.96983 22.8399V22.8399Z" stroke="#0086c0" stroke-width="1.5" stroke-linecap="round" stroke-linejoin="round"/>
<path d="M31.6398 1.31006C32.5498 1.31006 32.7498 1.82006 32.0998 2.45006L18.2298 15.7401C17.5698 16.3701 16.4998 16.3701 15.8398 15.7401L1.96983 2.45006C1.30983 1.82006 1.51983 1.31006 2.42983 1.31006H31.6398V1.31006Z" stroke="#0086c0" stroke-width="1.5" stroke-linecap="round" stroke-linejoin="round"/>
</svg>
