<svg width="56" height="56" viewBox="0 0 56 56" fill="none" xmlns="http://www.w3.org/2000/svg">
<path d="M33.46 27.62L23.21 21.7V33.54L33.46 27.62Z" stroke="#272c3c" stroke-width="1.4"/>
<path d="M42.55 16H14.36C12.5043 16 11 17.5043 11 19.36V35.88C11 37.7357 12.5043 39.24 14.36 39.24H42.55C44.4057 39.24 45.91 37.7357 45.91 35.88V19.36C45.91 17.5043 44.4057 16 42.55 16Z" stroke="#272c3c" stroke-width="1.4"/>
</svg>
