<svg width="56" height="56" viewBox="0 0 56 56" fill="none" xmlns="http://www.w3.org/2000/svg">
<path d="M29.17 37.94C27.56 37.94 25.91 37.7 24.13 37.22C23.88 37.15 23.6 37.19 23.39 37.31L16.59 41.36L19.11 35.47C19.21 35.23 19.12 34.96 18.88 34.79C15.53 32.43 13.6 29.08 13.6 25.6C13.6 18.8 20.58 13.26 29.17 13.26C37.76 13.26 44.74 18.79 44.74 25.6C44.74 32.41 37.76 37.94 29.17 37.94ZM29.17 12C19.7 12 12 18.1 12 25.61C12 29.31 13.97 32.88 17.42 35.46L14.25 42.9C14.14 43.16 14.25 43.45 14.54 43.62C14.68 43.7 14.85 43.74 15.01 43.74C15.17 43.74 15.35 43.7 15.49 43.61L24.02 38.53C25.82 38.99 27.51 39.21 29.17 39.21C38.64 39.21 46.34 33.11 46.34 25.61C46.34 18.11 38.64 12 29.17 12" fill="white"/>
<path d="M29.17 37.94C27.56 37.94 25.91 37.7 24.13 37.22C23.88 37.15 23.6 37.19 23.39 37.31L16.59 41.36L19.11 35.47C19.21 35.23 19.12 34.96 18.88 34.79C15.53 32.43 13.6 29.08 13.6 25.6C13.6 18.8 20.58 13.26 29.17 13.26C37.76 13.26 44.74 18.79 44.74 25.6C44.74 32.41 37.76 37.94 29.17 37.94ZM29.17 12C19.7 12 12 18.1 12 25.61C12 29.31 13.97 32.88 17.42 35.46L14.25 42.9C14.14 43.16 14.25 43.45 14.54 43.62C14.68 43.7 14.85 43.74 15.01 43.74C15.17 43.74 15.35 43.7 15.49 43.61L24.02 38.53C25.82 38.99 27.51 39.21 29.17 39.21C38.64 39.21 46.34 33.11 46.34 25.61C46.34 18.11 38.64 12 29.17 12V12Z" stroke="white" stroke-width="0.5" stroke-miterlimit="10"/>
</svg>
